{
    "_id": "E6e8iE0BgIxLYqQZ",
    "data": {
        "attributes": {
            "ac": {
                "value": 19
            },
            "hardness": 12,
            "hasHealth": true,
            "hp": {
                "details": "",
                "max": 50,
                "temp": 0,
                "value": 50
            },
            "stealth": {
                "details": "<p>(expert)</p>",
                "value": 13
            }
        },
        "creatureType": "",
        "details": {
            "description": "<p>A spring-loaded, poisoned needle is hidden near the drawer's keyhole. Disabling or breaking the trap does not disable or break the lock.</p>",
            "disable": "<p><span data-pf2-skill-check=\"thievery\" data-pf2-label=\"Disable Thievery DC\" data-pf2-dc=\"23\" data-pf2-show-dc=\"gm\">Thievery</span> (expert) on the spring mechanism.</p>",
            "isComplex": false,
            "level": {
                "value": 5
            },
            "reset": "",
            "routine": ""
        },
        "recallKnowledgeText": "",
        "saves": {
            "fortitude": {
                "rank": 0,
                "saveDetail": "",
                "value": 15
            },
            "reflex": {
                "rank": 0,
                "saveDetail": "",
                "value": 9
            },
            "will": {
                "rank": 0,
                "saveDetail": "",
                "value": null
            }
        },
        "schema": {
            "lastMigration": null,
            "version": 0.643
        },
        "source": {
            "value": "Pathfinder One-Shot #2: Dinner at Lionlodge"
        },
        "statusEffects": [],
        "traits": {
            "ci": [],
            "di": {
                "custom": "",
                "selected": {},
                "value": [
                    "precision",
                    "critical-hits",
                    "object-immunities"
                ]
            },
            "dr": [],
            "dv": [],
            "rarity": {
                "value": "common"
            },
            "size": {
                "value": "med"
            },
            "traits": {
                "custom": "",
                "value": [
                    "mechanical",
                    "trap"
                ]
            }
        }
    },
    "effects": [],
    "flags": {},
    "img": "systems/pf2e/icons/default-icons/hazard.svg",
    "items": [
        {
            "_id": "mSHFzRlFXnG67gvg",
            "data": {
                "actionCategory": {
                    "value": "offensive"
                },
                "actionType": {
                    "value": "reaction"
                },
                "actions": {
                    "value": ""
                },
                "description": {
                    "value": "<p><strong>Trigger</strong> A creature tries to unlock or @Compendium[pf2e.actionspf2e.Pick a Lock]{Pick the Lock};</p>\n<p><strong>Effect</strong> The needle extends to attack the triggering creature.</p>"
                },
                "requirements": {
                    "value": ""
                },
                "rules": [],
                "schema": {
                    "lastMigration": null,
                    "version": 0.643
                },
                "slug": null,
                "source": {
                    "value": ""
                },
                "traits": {
                    "custom": "",
                    "rarity": {
                        "value": "common"
                    },
                    "value": []
                },
                "trigger": {
                    "value": ""
                },
                "weapon": {
                    "value": ""
                }
            },
            "effects": [],
            "flags": {},
            "img": "systems/pf2e/icons/actions/Reaction.webp",
            "name": "Spring",
            "sort": 0,
            "type": "action"
        },
        {
            "_id": "F7pAqbfwb5BHQasS",
            "data": {
                "attack": {
                    "value": ""
                },
                "attackEffects": {
                    "custom": "",
                    "value": [
                        "enhanced-hunting-spider-venom"
                    ]
                },
                "bonus": {
                    "value": 19
                },
                "damageRolls": {
                    "ji0llge43nloqgvmrlxa": {
                        "damage": "1",
                        "damageType": "piercing"
                    }
                },
                "description": {
                    "value": "<p>plus Enhanced Hunting Spider Venom</p>"
                },
                "rules": [],
                "schema": {
                    "lastMigration": null,
                    "version": 0.643
                },
                "slug": null,
                "source": {
                    "value": ""
                },
                "traits": {
                    "custom": "",
                    "rarity": {
                        "value": "common"
                    },
                    "value": []
                },
                "weaponType": {
                    "value": "melee"
                }
            },
            "effects": [],
            "flags": {},
            "img": "systems/pf2e/icons/default-icons/melee.svg",
            "name": "Needle",
            "sort": 0,
            "type": "melee"
        },
        {
            "_id": "4HwflTBmGsWNVzQu",
            "data": {
                "actionCategory": {
                    "value": "offensive"
                },
                "actionType": {
                    "value": "passive"
                },
                "actions": {
                    "value": ""
                },
                "description": {
                    "value": "<p><strong>Saving Throw</strong><span data-pf2-saving-throw=\"fortitude\" data-pf2-traits=\"poison\" data-pf2-label=\"Enhanced Hunting Spider Venom\" data-pf2-dc=\"23\" data-pf2-show-dc=\"gm\">basic Fortitude</span>;</p>\n<div data-visibility=\"gm\">\n<p><strong>Maximum Duration</strong> 6 rounds;</p>\n<hr />\n<p><strong>Stage 1</strong> [[/r 1d10 #poison]] poison damage and @Compendium[pf2e.conditionitems.Flat-Footed]{Flat-Footed} (1 round);</p>\n<p><strong>Stage 2</strong> [[/r 1d12 #poison]] poison damage, @Compendium[pf2e.conditionitems.Clumsy]{Clumsy 1}, and flat-footed (1 round);</p>\n<p><strong>Stage 3</strong> [[/r 2d6 #poison]] poison damage, @Compendium[pf2e.conditionitems.Clumsy]{Clumsy 2}, and flat-footed (1 round).</p>\n<hr />\n<p><strong>Note</strong>: The clumsy condition caused by this venom persists for 24 hours before fading.</p>\n</div>"
                },
                "requirements": {
                    "value": ""
                },
                "rules": [],
                "schema": {
                    "lastMigration": null,
                    "version": 0.643
                },
                "slug": null,
                "source": {
                    "value": ""
                },
                "traits": {
                    "custom": "",
                    "rarity": {
                        "value": "common"
                    },
                    "value": [
                        "poison"
                    ]
                },
                "trigger": {
                    "value": ""
                },
                "weapon": {
                    "value": ""
                }
            },
            "effects": [],
            "flags": {},
            "img": "systems/pf2e/icons/actions/Passive.webp",
            "name": "Enhanced Hunting Spider Venom",
            "sort": 0,
            "type": "action"
        }
    ],
    "name": "Poisoned Lock (Lionlodge)",
    "token": {
        "actorLink": false,
        "alpha": 1,
        "bar1": {
            "attribute": "attributes.hp"
        },
        "bar2": {
            "attribute": null
        },
        "brightLight": 0,
        "brightSight": 0,
        "dimLight": 0,
        "dimSight": 0,
        "displayBars": 20,
        "displayName": 20,
        "disposition": 0,
        "flags": {},
        "height": 1,
        "img": "systems/pf2e/icons/default-icons/hazard.svg",
        "lightAlpha": 0.25,
        "lightAngle": 0,
        "lightAnimation": {
            "intensity": 5,
            "speed": 5
        },
        "lockRotation": false,
        "mirrorX": false,
        "mirrorY": false,
        "name": "Poisoned Lock (Lionlodge)",
        "randomImg": false,
        "rotation": 0,
        "scale": 1,
        "sightAngle": 0,
        "vision": false,
        "width": 1
    },
    "type": "hazard"
}
