{
    "_id": "3kXTGUvodNMnJTxb",
    "data": {
        "boosts": {
            "0": {
                "value": [
                    "int",
                    "wis"
                ]
            },
            "1": {
                "value": [
                    "cha",
                    "con",
                    "dex",
                    "int",
                    "str",
                    "wis"
                ]
            }
        },
        "description": {
            "chat": "",
            "unidentified": "",
            "value": "<p><strong>[Legacy - Age of Ashes]</strong></p>\n<p>The aiudara of Alseta's Ring have become more well known, and you are interested in learning more about them.</p>\n<p>Choose two ability boosts. One must be to <strong>Intelligence</strong> or <strong>Wisdom</strong>, and one is a free ability boost.</p>\n<p>You're trained in the Arcana skill and the Portal Lore skill. You gain the @Compendium[pf2e.feats-srd.Quick Identification]{Quick Identification} skill feat.</p>"
        },
        "items": {
            "sgdv7": {
                "id": "IlOQuCQIhjJpig3S",
                "img": "systems/pf2e/icons/features/feats/feats.webp",
                "level": "1",
                "name": "Quick Identification",
                "pack": "pf2e.feats-srd"
            }
        },
        "rules": [],
        "schema": {
            "lastMigration": null,
            "version": 0.643
        },
        "source": {
            "value": ""
        },
        "trainedLore": "Portal Lore",
        "trainedSkills": {
            "value": [
                "arc"
            ]
        },
        "traits": {
            "custom": "",
            "rarity": {
                "value": "rare"
            },
            "value": []
        }
    },
    "effects": [],
    "flags": {},
    "img": "systems/pf2e/icons/default-icons/mystery-man.svg",
    "name": "Aiudara Seeker",
    "type": "background"
}
