{
    "_id": "gfklP8ub45R4wXKe",
    "data": {
        "boosts": {
            "0": {
                "value": [
                    "cha",
                    "wis"
                ]
            },
            "1": {
                "value": [
                    "cha",
                    "con",
                    "dex",
                    "int",
                    "str",
                    "wis"
                ]
            }
        },
        "description": {
            "chat": "",
            "unidentified": "",
            "value": "<p><strong>Prerequisite</strong>: Region - Broken Lands</p>\n<hr />\n<p>New realms rise constantly in the River Kingdoms, and you intend to lead one of them. Making your reign last, however, will require both strength and grace.</p>\n<p>Choose two ability boosts. One must be to <strong>Wisdom</strong> or <strong>Charisma</strong>, and one is a free ability boost.</p>\n<p>You're trained in the Society skill and the Politics Lore skill. You gain the @Compendium[pf2e.feats-srd.Courtly Graces]{Courtly Graces} skill feat.</p>"
        },
        "items": {
            "1v9rl": {
                "id": "JtjnFsOToBLnSRO9",
                "img": "systems/pf2e/icons/features/feats/feats.webp",
                "level": "1",
                "name": "Courtly Graces",
                "pack": "pf2e.feats-srd"
            }
        },
        "rules": [],
        "schema": {
            "lastMigration": null,
            "version": 0.643
        },
        "source": {
            "value": ""
        },
        "trainedLore": "Politics Lore",
        "trainedSkills": {
            "value": [
                "soc"
            ]
        },
        "traits": {
            "custom": "",
            "rarity": {
                "value": "common"
            },
            "value": []
        }
    },
    "effects": [],
    "flags": {},
    "img": "systems/pf2e/icons/default-icons/mystery-man.svg",
    "name": "Aspiring River Monarch",
    "type": "background"
}
