{
    "_id": "tA0nggrWfBEhvsKA",
    "data": {
        "boosts": {
            "0": {
                "value": [
                    "cha",
                    "dex"
                ]
            },
            "1": {
                "value": [
                    "cha",
                    "con",
                    "dex",
                    "int",
                    "str",
                    "wis"
                ]
            }
        },
        "description": {
            "chat": "",
            "unidentified": "",
            "value": "<p><strong>Prerequisite</strong>: Region - Old Cheliax</p>\n<hr />\n<p>You joined the fight against House Thrune. You may have helped liberate the nation of Ravounel, or you might be involved in another rebellion, such as Pezzack's, that studied Ravounel's successes.</p>\n<p>Choose two ability boosts. One must be to <strong>Dexterity</strong> or <strong>Charisma</strong>, and one is a free ability boost.</p>\n<p>You're trained in the Society skill and the Kintargo Lore skill. You gain the @Compendium[pf2e.feats-srd.Streetwise]{Streetwise} skill feat.</p>"
        },
        "items": {
            "nl8vr": {
                "id": "X2jGFfLU5qI5XVot",
                "img": "systems/pf2e/icons/features/feats/feats.webp",
                "level": "1",
                "name": "Streetwise",
                "pack": "pf2e.feats-srd"
            }
        },
        "rules": [],
        "schema": {
            "lastMigration": null,
            "version": 0.643
        },
        "source": {
            "value": ""
        },
        "trainedLore": "Kintargo Lore",
        "trainedSkills": {
            "value": [
                "soc"
            ]
        },
        "traits": {
            "custom": "",
            "rarity": {
                "value": "common"
            },
            "value": []
        }
    },
    "effects": [],
    "flags": {},
    "img": "systems/pf2e/icons/default-icons/mystery-man.svg",
    "name": "Chelish Rebel",
    "type": "background"
}
