{
    "_id": "XHY0xrSSbX0cTJKK",
    "data": {
        "boosts": {
            "0": {
                "value": [
                    "con",
                    "int"
                ]
            },
            "1": {
                "value": [
                    "cha",
                    "con",
                    "dex",
                    "int",
                    "str",
                    "wis"
                ]
            }
        },
        "description": {
            "chat": "",
            "unidentified": "",
            "value": "<p>You grew up in the church of the Dark Smith, where you learned the value of hard work and achieving vocational mastery.</p>\n<p>Choose two ability boosts. One must be to <strong>Constitution</strong> or <strong>Intelligence</strong>, and one is a free ability boost.</p>\n<p>You gain the @Compendium[pf2e.feats-srd.Skill Training]{Skill Training} skill feat, and you're trained in the Droskar Lore skill.</p>"
        },
        "items": {
            "6zu5x": {
                "id": "P6icK2DbRoZ3H6kc",
                "img": "systems/pf2e/icons/features/feats/feats.webp",
                "level": 1,
                "name": "Skill Training",
                "pack": "pf2e.feats-srd"
            }
        },
        "rules": [],
        "schema": {
            "lastMigration": null,
            "version": 0.643
        },
        "source": {
            "value": ""
        },
        "trainedLore": "Droskar Lore",
        "trainedSkills": {
            "value": []
        },
        "traits": {
            "custom": "",
            "rarity": {
                "value": "common"
            },
            "value": []
        }
    },
    "effects": [],
    "flags": {},
    "img": "systems/pf2e/icons/default-icons/mystery-man.svg",
    "name": "Droskari Disciple",
    "type": "background"
}
