{
    "_id": "NZY0r4Csjul6eVPp",
    "data": {
        "boosts": {
            "0": {
                "value": [
                    "cha",
                    "con"
                ]
            },
            "1": {
                "value": [
                    "cha",
                    "con",
                    "dex",
                    "int",
                    "str",
                    "wis"
                ]
            }
        },
        "description": {
            "chat": "",
            "unidentified": "",
            "value": "<p><strong>Prerequisites</strong>: Leshy ancestry</p>\n<hr />\n<p>You are a leshy from Finadar Forest, originally created under the corruption of a cyclopean monolith. Though the Pathfinder Society managed to sever the monolith's connection, freeing the forest and your people from its influence, you retain a trace, unnerving connection to the Abyss.</p>\n<p>Choose two ability boosts. One must be to <strong>Constitution</strong> or <strong>Charisma</strong>, and one is a free ability boost.</p>\n<p>You're trained in the Intimidation skill and the Abyssal Lore skill. You gain the @Compendium[pf2e.feats-srd.Intimidating Glare]{Intimidating Glare} skill feat.</p>"
        },
        "items": {
            "horfp": {
                "id": "xQMz6eDgX75WX2ce",
                "img": "systems/pf2e/icons/features/feats/feats.webp",
                "level": "1",
                "name": "Intimidating Glare",
                "pack": "pf2e.feats-srd"
            }
        },
        "rules": [],
        "schema": {
            "lastMigration": null,
            "version": 0.643
        },
        "source": {
            "value": ""
        },
        "trainedLore": "Abyssal Lore",
        "trainedSkills": {
            "value": [
                "itm"
            ]
        },
        "traits": {
            "custom": "",
            "rarity": {
                "value": "common"
            },
            "value": []
        }
    },
    "effects": [],
    "flags": {},
    "img": "systems/pf2e/icons/default-icons/mystery-man.svg",
    "name": "Finadar Leshy",
    "type": "background"
}
