{
    "_id": "0z0PSizHviOehdJF",
    "data": {
        "boosts": {
            "0": {
                "value": [
                    "con",
                    "wis"
                ]
            },
            "1": {
                "value": [
                    "cha",
                    "con",
                    "dex",
                    "int",
                    "str",
                    "wis"
                ]
            }
        },
        "description": {
            "chat": "",
            "unidentified": "",
            "value": "<p>You've been haunted by frightening dreams of fires your whole life. This could be the result of a past, near-death experience with fire or it might have no obvious source that you know of. Recently, you stumbled upon an image, story, or other omen featuring the dragon god of destruction, Dahak, and you were struck with an unnerving sense of deja vu-you've come to think that the draconic deity might have something to do with your dreams, and as such have been studying all you can about the god. Your visions have bolstered your faith as well; even if you don't worship a specific deity, you have a deep passion for matters of faith.</p>\n<p>Your latest dream, for the first time, had enough details to identify its setting-in this last dream, you saw the town of Breachill burning. You've decided to join the Call for Heroes hoping to save the town you fear might burn to the ground soon.</p>\n<p>Choose two ability boosts. One must be to <strong>Constitution</strong> or <strong>Wisdom</strong>, and one is a free ability boost.</p>\n<p>You're trained in the Religion skill and the Dahak Lore skill. You gain the @Compendium[pf2e.feats-srd.Student of the Canon]{Student of the Canon} skill feat.</p>"
        },
        "items": {
            "vaywv": {
                "id": "x7EMZNMavris2aHY",
                "img": "systems/pf2e/icons/features/feats/feats.webp",
                "level": "1",
                "name": "Student of the Canon",
                "pack": "pf2e.feats-srd"
            }
        },
        "rules": [],
        "schema": {
            "lastMigration": null,
            "version": 0.643
        },
        "source": {
            "value": ""
        },
        "trainedLore": "Dahak Lore",
        "trainedSkills": {
            "value": [
                "rel"
            ]
        },
        "traits": {
            "custom": "",
            "rarity": {
                "value": "common"
            },
            "value": []
        }
    },
    "effects": [],
    "flags": {},
    "img": "systems/pf2e/icons/default-icons/mystery-man.svg",
    "name": "Haunting Vision",
    "type": "background"
}
