{
    "_id": "7AfixHrjbXgDPPkp",
    "data": {
        "boosts": {
            "0": {
                "value": [
                    "cha",
                    "int"
                ]
            },
            "1": {
                "value": [
                    "cha",
                    "con",
                    "dex",
                    "int",
                    "str",
                    "wis"
                ]
            }
        },
        "description": {
            "chat": "",
            "unidentified": "",
            "value": "<p>In your youth, you learned to transcribe books and translate scrolls to preserve knowledge or perhaps to aid wealthy merchants and politicians. Whether you set out to make your own fortune or are drawn to decipher the strangest codes, your linguistic training will guide your discoveries.</p>\n<p>Choose two ability boosts. One must be to <strong>Intelligence</strong> or <strong>Charisma</strong>, and one is a free ability boost.</p>\n<p>You're trained in the Society skill and the Scribing Lore skill. You gain the @Compendium[pf2e.feats-srd.Multilingual]{Multilingual} skill feat.</p>"
        },
        "items": {
            "yqlay": {
                "id": "P9HCz0uR6xPHuw72",
                "img": "systems/pf2e/icons/features/feats/feats.webp",
                "level": "1",
                "name": "Multilingual",
                "pack": "pf2e.feats-srd"
            }
        },
        "rules": [],
        "schema": {
            "lastMigration": null,
            "version": 0.643
        },
        "source": {
            "value": ""
        },
        "trainedLore": "Scribing Lore",
        "trainedSkills": {
            "value": [
                "soc"
            ]
        },
        "traits": {
            "custom": "",
            "rarity": {
                "value": "common"
            },
            "value": []
        }
    },
    "effects": [],
    "flags": {},
    "img": "systems/pf2e/icons/default-icons/mystery-man.svg",
    "name": "Translator",
    "type": "background"
}
