{
    "_id": "KlkPJgiCiHpuyNpv",
    "data": {
        "baseItem": null,
        "brokenThreshold": {
            "value": 0
        },
        "bulkCapacity": {
            "value": ""
        },
        "collapsed": {
            "value": false
        },
        "containerId": {
            "value": ""
        },
        "description": {
            "chat": "",
            "unidentified": "",
            "value": "<p>Chronicler wayfinders bear a mystical connection to the Pathfinder Chronicles themselves, granting them the ability to assist in situations where unusual lore is needed by drawing on lore from a particular topic. Each chronicler wayfinder is attuned to a specific Lore skill, chosen at the time of creation. In addition to the effects of a @Compendium[pf2e.equipment-srd.Wayfinder]{Wayfinder}, a chronicler wayfinder has the following activation.</p>\n<hr />\n<p><strong>Activate</strong> <span class=\"pf2-icon\">A</span> Envision</p>\n<p><strong>Effect</strong> You tap into the Pathfinder Chronicles on the chronicler wayfinder's attuned topic, gaining the effects of a Recall Knowledge action with the chosen Lore skill. For the Lore check's modifier, use whichever is better of +12 or your own modifier, using your level as your proficiency bonus even if you're untrained in the attuned Lore skill.</p>"
        },
        "equipped": {
            "value": false
        },
        "equippedBulk": {
            "value": ""
        },
        "hardness": {
            "value": 0
        },
        "hp": {
            "value": 0
        },
        "identification": {
            "misidentified": {},
            "status": "identified",
            "unidentified": {
                "data": {
                    "description": {
                        "value": ""
                    }
                },
                "img": "",
                "name": ""
            }
        },
        "invested": {
            "value": false
        },
        "level": {
            "value": 6
        },
        "maxHp": {
            "value": 0
        },
        "negateBulk": {
            "value": "0"
        },
        "preciousMaterial": {
            "value": ""
        },
        "preciousMaterialGrade": {
            "value": ""
        },
        "price": {
            "value": "200 gp"
        },
        "quantity": {
            "value": 1
        },
        "rules": [],
        "schema": {
            "lastMigration": null,
            "version": 0.643
        },
        "size": {
            "value": "med"
        },
        "source": {
            "value": ""
        },
        "stackGroup": {
            "value": ""
        },
        "traits": {
            "custom": "",
            "rarity": {
                "value": "uncommon"
            },
            "value": []
        },
        "usage": {
            "value": "worn"
        },
        "weight": {
            "value": "-"
        }
    },
    "effects": [],
    "flags": {},
    "img": "systems/pf2e/icons/equipment/worn-items/other-worn-items/wayfinder.webp",
    "name": "Chronicler Wayfinder",
    "type": "equipment"
}
