{
    "_id": "T4gTHDKJ0HI10p3y",
    "data": {
        "baseItem": null,
        "brokenThreshold": {
            "value": 0
        },
        "bulkCapacity": {
            "value": ""
        },
        "collapsed": {
            "value": false
        },
        "containerId": {
            "value": ""
        },
        "description": {
            "chat": "",
            "unidentified": "",
            "value": "<p>Usage etched on a slashing or piercing weapon The weapon performs divination magic on the blood of your foes, granting you insight into their abilities and weaknesses.</p>\n<hr />\n<p><strong>Activate</strong> <span class=\"pf2-icon\">F</span> envision;</p>\n<p><strong>Frequency</strong> once per minute;</p>\n<p><strong>Requirements</strong> On your previous action this turn, you used this weapon to hit and damage a creature that has blood or other vital fluids;</p>\n<p><strong>Effect</strong> You learn the secrets the weapon gleaned from the creature's blood. Attempt to Recall Knowledge about the target of the required attack, gaining an item bonus to the Recall Knowledge skill check equal to the weapon's item bonus to attack rolls from its potency rune.</p>\n<p>If the required attack was a critical hit, you also gain a +2 circumstance bonus to this check.</p>"
        },
        "equipped": {
            "value": false
        },
        "equippedBulk": {
            "value": ""
        },
        "hardness": {
            "value": 0
        },
        "hp": {
            "value": 0
        },
        "identification": {
            "misidentified": {},
            "status": "identified",
            "unidentified": {
                "data": {
                    "description": {
                        "value": ""
                    }
                },
                "img": "",
                "name": ""
            }
        },
        "invested": {
            "value": false
        },
        "level": {
            "value": 5
        },
        "maxHp": {
            "value": 0
        },
        "negateBulk": {
            "value": "0"
        },
        "preciousMaterial": {
            "value": ""
        },
        "preciousMaterialGrade": {
            "value": ""
        },
        "price": {
            "value": "140 gp"
        },
        "quantity": {
            "value": 1
        },
        "rules": [],
        "schema": {
            "lastMigration": null,
            "version": 0.643
        },
        "size": {
            "value": "med"
        },
        "source": {
            "value": ""
        },
        "stackGroup": {
            "value": ""
        },
        "traits": {
            "custom": "",
            "rarity": {
                "value": "uncommon"
            },
            "usage": {
                "value": "etched-onto-a-weapon"
            },
            "value": []
        },
        "usage": {
            "value": "held-in-one-hand"
        },
        "weight": {
            "value": "-"
        }
    },
    "effects": [],
    "flags": {},
    "img": "systems/pf2e/icons/equipment/runes/weapon-property-runes/weapon-property-runes.webp",
    "name": "Cunning",
    "type": "equipment"
}
