{
    "_id": "QJ1PhbtbLzwhRlY0",
    "data": {
        "baseItem": null,
        "brokenThreshold": {
            "value": 0
        },
        "bulkCapacity": {
            "value": ""
        },
        "collapsed": {
            "value": false
        },
        "containerId": {
            "value": ""
        },
        "description": {
            "chat": "",
            "unidentified": "",
            "value": "<p>This long and billowing scarf is typically woven of silk or sheer fabric and adorned with bells or other jangling bits of shiny metal. It grants a +2 item bonus to Performance checks to dance.</p>\n<p><strong>Activate</strong> <span class=\"pf2-icon\">A</span> Interact; <strong>Requirements</strong> On your most recent action, you succeeded at a Performance check to dance; <strong>Effect</strong> You become concealed until the beginning of your next turn. You can also Stride up to half your Speed or Step.</p>\n<hr />\n<p>Automatically applied effects:</p>\n<ul>\n<li>+2 item bonus to Performance checks to dance</li>\n</ul>"
        },
        "equipped": {
            "value": false
        },
        "equippedBulk": {
            "value": ""
        },
        "hardness": {
            "value": 0
        },
        "hp": {
            "value": 0
        },
        "identification": {
            "misidentified": {},
            "status": "identified",
            "unidentified": {
                "data": {
                    "description": {
                        "value": ""
                    }
                },
                "img": "",
                "name": ""
            }
        },
        "invested": {
            "value": false
        },
        "level": {
            "value": 9
        },
        "maxHp": {
            "value": 0
        },
        "negateBulk": {
            "value": "0"
        },
        "preciousMaterial": {
            "value": ""
        },
        "preciousMaterialGrade": {
            "value": ""
        },
        "price": {
            "value": "650 gp"
        },
        "quantity": {
            "value": 1
        },
        "rules": [
            {
                "key": "PF2E.RuleElement.FlatModifier",
                "predicate": {
                    "any": [
                        "dance"
                    ]
                },
                "selector": "performance",
                "type": "item",
                "value": 2
            }
        ],
        "schema": {
            "lastMigration": null,
            "version": 0.643
        },
        "size": {
            "value": "med"
        },
        "source": {
            "value": ""
        },
        "stackGroup": {
            "value": ""
        },
        "traits": {
            "custom": "",
            "rarity": {
                "value": "common"
            },
            "value": [
                "illusion",
                "invested",
                "magical",
                "visual"
            ]
        },
        "usage": {
            "value": "wornbelt"
        },
        "weight": {
            "value": "-"
        }
    },
    "effects": [],
    "flags": {},
    "img": "systems/pf2e/icons/equipment/worn-items/other-worn-items/dancing-scarf.webp",
    "name": "Dancing Scarf (Greater)",
    "type": "equipment"
}
