{
    "_id": "rfP9e1fnwjnIQSJK",
    "data": {
        "MAP": {
            "value": ""
        },
        "ability": {
            "value": "str"
        },
        "baseItem": "fire-poi",
        "bonus": {
            "value": 0
        },
        "bonusDamage": {
            "value": 0
        },
        "brokenThreshold": {
            "value": 0
        },
        "bulkCapacity": {
            "value": ""
        },
        "collapsed": {
            "value": false
        },
        "containerId": {
            "value": ""
        },
        "damage": {
            "damageType": "bludgeoning",
            "dice": 1,
            "die": "d4",
            "value": ""
        },
        "description": {
            "chat": "",
            "unidentified": "",
            "value": "<p>These special poi are made from a rare, light metal or from fire-retardant fibers and can be ignited before being wielded. Igniting a pair of fire poi is an Interact action and requires 1 pint of @Compendium[pf2e.equipment-srd.Oil (1 pint)]{Oil} for every 10 minutes the poi remain ignited.</p>\n<p>While lit, fire poi cast dim light in a 10-foot radius; in combat, they deal 1d4 bludgeoning plus 1d4 fire damage. On a critical hit with a lit fire poi, the target takes 1 @Compendium[pf2e.conditionitems.Persistent Damage]{Persistent} fire damage. The fire can be extinguished using the Interact action.</p>\n<p>When unlit, the poi deal only the listed bludgeoning damage. Regardless of whether it is lit, the poi's 1d4 bludgeoning damage is the weapon damage dice, so <em>striking</em> runes and other effects don't affect the fire damage.</p>"
        },
        "equipped": {
            "value": false
        },
        "equippedBulk": {
            "value": ""
        },
        "group": {
            "value": "flail"
        },
        "hands": {
            "value": ""
        },
        "hardness": {
            "value": 0
        },
        "hp": {
            "value": 0
        },
        "identification": {
            "misidentified": {},
            "status": "identified",
            "unidentified": {
                "data": {
                    "description": {
                        "value": ""
                    }
                },
                "img": "",
                "name": ""
            }
        },
        "invested": {
            "value": false
        },
        "level": {
            "value": 0
        },
        "maxHp": {
            "value": 0
        },
        "negateBulk": {
            "value": "0"
        },
        "potencyRune": {
            "value": null
        },
        "preciousMaterial": {
            "value": ""
        },
        "preciousMaterialGrade": {
            "value": ""
        },
        "price": {
            "value": "0 gp"
        },
        "property1": {
            "critDamage": "",
            "critDamageType": "",
            "critDice": null,
            "critDie": "",
            "criticalConditionType": "",
            "criticalConditionValue": null,
            "damageType": "",
            "dice": null,
            "die": "",
            "strikeConditionType": "",
            "strikeConditionValue": null,
            "value": ""
        },
        "propertyRune1": {
            "value": ""
        },
        "propertyRune2": {
            "value": ""
        },
        "propertyRune3": {
            "value": ""
        },
        "propertyRune4": {
            "value": ""
        },
        "quantity": {
            "value": 1
        },
        "range": {
            "value": ""
        },
        "reload": {
            "value": ""
        },
        "rules": [
            {
                "key": "PF2E.RuleElement.Note",
                "outcome": "criticalSuccess",
                "selector": "{item|_id}-damage",
                "text": "<p class='compact-text'><strong>Effect:</strong> The poi also deals [[/r 1 #persistent fire]] @Compendium[pf2e.conditionitems.Persistent Damage]{Persistent Fire Damage} on a crit</p>"
            }
        ],
        "schema": {
            "lastMigration": null,
            "version": 0.643
        },
        "size": {
            "value": "med"
        },
        "source": {
            "value": ""
        },
        "splashDamage": {
            "value": null
        },
        "stackGroup": {
            "value": ""
        },
        "strikingRune": {
            "value": ""
        },
        "traits": {
            "custom": "",
            "rarity": {
                "value": "uncommon"
            },
            "value": [
                "agile",
                "backswing",
                "finesse",
                "twin"
            ]
        },
        "usage": {
            "value": "held-in-one-hand"
        },
        "weaponType": {
            "value": "advanced"
        },
        "weight": {
            "value": "L"
        }
    },
    "effects": [],
    "flags": {},
    "img": "systems/pf2e/icons/equipment/weapons/fire-poi.webp",
    "name": "Fire Poi",
    "type": "weapon"
}
