{
    "_id": "8uyRlAkWdEyfOziq",
    "data": {
        "activation": {
            "condition": "",
            "cost": 0,
            "type": ""
        },
        "autoDestroy": {
            "_deprecated": true,
            "value": true
        },
        "autoUse": {
            "_deprecated": true,
            "value": true
        },
        "baseItem": null,
        "brokenThreshold": {
            "value": 0
        },
        "bulkCapacity": {
            "value": ""
        },
        "charges": {
            "_deprecated": true,
            "max": 1,
            "value": 1
        },
        "collapsed": {
            "value": false
        },
        "consumableType": {
            "value": "potion"
        },
        "consume": {
            "_deprecated": true,
            "value": ""
        },
        "containerId": {
            "value": ""
        },
        "description": {
            "chat": "",
            "unidentified": "",
            "value": "<p>Upon being mixed and injected into the bloodstream, this powder of the crimson orchid quickly assaults the brain and nerves, disrupting the victim's ability to piece together coherent thoughts and spells.</p>\n<hr />\n<p><strong>Activate</strong> <span class=\"pf2-icon\">T</span> Interact (Injury)</p>\n<p><strong>Saving Throw</strong> <span data-pf2-saving-throw=\"fortitude\" data-pf2-dc=\"32\" data-pf2-traits=\"alchemical,consumable,injury,poison\" data-pf2-label=\"Mage Bane DC\" data-pf2-show-dc=\"gm\">Fortitude</span></p>\n<p><strong>Maximum Duration</strong> 6 rounds</p>\n<p><strong>Stage 1</strong> <a class=\"inline-roll roll\" data-mode=\"roll\" data-flavor=\"mental\" data-formula=\"2d6\" title=\"mental\"><i class=\"fas fa-dice-d20\"></i> 2d6</a> mental damage and @Compendium[pf2e.conditionitems.Stupefied]{Stupefied} 2 (1 round)</p>\n<p><strong>Stage 2</strong> <a class=\"inline-roll roll\" data-mode=\"roll\" data-flavor=\"mental\" data-formula=\"3d6\" title=\"mental\"><i class=\"fas fa-dice-d20\"></i> 3d6</a> mental damage and stupefied 3 (1 round)</p>\n<p><strong>Stage 3</strong> <a class=\"inline-roll roll\" data-mode=\"roll\" data-flavor=\"mental\" data-formula=\"4d6\" title=\"mental\"><i class=\"fas fa-dice-d20\"></i> 4d6</a> mental damage and stupefied 4 (1 round)</p>"
        },
        "duration": {
            "units": "",
            "value": null
        },
        "equipped": {
            "value": false
        },
        "equippedBulk": {
            "value": ""
        },
        "hardness": {
            "value": 0
        },
        "hp": {
            "value": 0
        },
        "identification": {
            "misidentified": {},
            "status": "identified",
            "unidentified": {
                "data": {
                    "description": {
                        "value": ""
                    }
                },
                "img": "",
                "name": ""
            }
        },
        "invested": {
            "value": false
        },
        "level": {
            "value": 12
        },
        "maxHp": {
            "value": 0
        },
        "negateBulk": {
            "value": "0"
        },
        "preciousMaterial": {
            "value": ""
        },
        "preciousMaterialGrade": {
            "value": ""
        },
        "price": {
            "value": "325 gp"
        },
        "quantity": {
            "value": 1
        },
        "range": {
            "long": null,
            "units": "",
            "value": null
        },
        "rules": [],
        "schema": {
            "lastMigration": null,
            "version": 0.643
        },
        "size": {
            "value": "med"
        },
        "source": {
            "value": "Pathfinder #149: Against the Scarlet Triad"
        },
        "spell": {
            "data": null,
            "heightenedLevel": null
        },
        "stackGroup": {
            "value": ""
        },
        "target": {
            "type": "",
            "units": "",
            "value": null
        },
        "traits": {
            "custom": "",
            "rarity": {
                "value": "uncommon"
            },
            "usage": {
                "value": "held-in-one-hand"
            },
            "value": [
                "alchemical",
                "consumable",
                "injury",
                "poison"
            ]
        },
        "usage": {
            "value": "held-in-one-hand"
        },
        "uses": {
            "autoDestroy": true,
            "autoUse": true,
            "max": 0,
            "per": null,
            "value": 0
        },
        "weight": {
            "value": "L"
        }
    },
    "effects": [],
    "flags": {},
    "img": "systems/pf2e/icons/equipment/alchemical-items/alchemical-poisons/mage-bane.webp",
    "name": "Mage Bane",
    "type": "consumable"
}
