{
    "_id": "e4lHxftAOoTmGXuG",
    "data": {
        "baseItem": null,
        "brokenThreshold": {
            "value": 0
        },
        "bulkCapacity": {
            "value": ""
        },
        "collapsed": {
            "value": false
        },
        "containerId": {
            "value": ""
        },
        "description": {
            "chat": "",
            "unidentified": "",
            "value": "<p>This long, shoddy cloak bears a hood and a simple brass clasp. While wearing the cloak, you gain a +2 item bonus to Deception checks to Impersonate an individual and to Lie while in character as that individual.</p>\n<hr />\n<p><strong>Activate</strong> 1 minute (envision, Interact)</p>\n<p><strong>Frequency</strong> once per day</p>\n<p><strong>Requirements</strong> You are Impersonating someone else</p>\n<p><strong>Effect</strong> While conversing or otherwise casually interacting with other creatures, you can adjust the mantle's clasp to modify those creatures' recollections of the last 5 minutes of their interaction with you. Each creature must attempt a <span data-pf2-saving-throw=\"will\" data-pf2-dc=\"28\" data-pf2-traits=\"illusion,magical\" data-pf2-label=\"Greater Unmemorable Mantle DC\" data-pf2-show-dc=\"gm\">Will</span> save.</p>\n<p><strong>Critical Success</strong> The creature recalls the interaction clearly and realizes you were trying to alter their memory.</p>\n<p><strong>Success</strong> The creature recalls the interaction clearly.</p>\n<p><strong>Failure</strong> You decide whether or not the creature recalls the interaction. You can also alter minor details the creature recalls about the interaction, such as the time, place, and whether the interaction was favorable, as determined by the GM.</p>\n<p><strong>Critical Failure</strong> You decide whether or not the creature recalls the interaction. You can also alter major details the creature recalls about the interaction, such as believing you to be another individual or that the creature agreed to a favor, as determined by the GM.</p>\n<hr />\n<p>Automatically applied effects:</p>\n<ul>\n<li>a +2 item bonus to Deception checks to Impersonate an individual and to Lie while in character as that individual.</li>\n</ul>"
        },
        "equipped": {
            "value": false
        },
        "equippedBulk": {
            "value": ""
        },
        "hardness": {
            "value": 0
        },
        "hp": {
            "value": 0
        },
        "identification": {
            "misidentified": {},
            "status": "identified",
            "unidentified": {
                "data": {
                    "description": {
                        "value": ""
                    }
                },
                "img": "",
                "name": ""
            }
        },
        "invested": {
            "value": false
        },
        "level": {
            "value": 9
        },
        "maxHp": {
            "value": 0
        },
        "negateBulk": {
            "value": "0"
        },
        "preciousMaterial": {
            "value": ""
        },
        "preciousMaterialGrade": {
            "value": ""
        },
        "price": {
            "value": "1,300 gp"
        },
        "quantity": {
            "value": 1
        },
        "rules": [
            {
                "key": "PF2E.RuleElement.FlatModifier",
                "label": "Unmemorable Mantle (Impersonate & Lie in character)",
                "predicate": {
                    "any": [
                        "action:impersonate",
                        "action:lie"
                    ]
                },
                "selector": "deception",
                "type": "item",
                "value": 2
            }
        ],
        "schema": {
            "lastMigration": null,
            "version": 0.643
        },
        "size": {
            "value": "med"
        },
        "source": {
            "value": ""
        },
        "stackGroup": {
            "value": ""
        },
        "traits": {
            "custom": "",
            "rarity": {
                "value": "common"
            },
            "value": [
                "illusion",
                "invested",
                "magical"
            ]
        },
        "usage": {
            "value": "worncloak"
        },
        "weight": {
            "value": "1"
        }
    },
    "effects": [],
    "flags": {},
    "img": "systems/pf2e/icons/equipment/worn-items/other-worn-items/unmemorable-mantle.webp",
    "name": "Unmemorable Mantle (Greater)",
    "type": "equipment"
}
