{
    "_id": "kDrlBnkDMVxPrahI",
    "data": {
        "baseItem": null,
        "brokenThreshold": {
            "value": 0
        },
        "bulkCapacity": {
            "value": ""
        },
        "collapsed": {
            "value": false
        },
        "containerId": {
            "value": ""
        },
        "description": {
            "chat": "",
            "unidentified": "",
            "value": "<p>This small tube of metal and glass has an opening at one end into which water can be poured, leading to a series of interconnected chambers filled with purifying agents contained between various perforated walls. The purifier attempts to counteract poisons and other toxins present in water or any other liquid poured into it. Alchemically-treated replacement filters can be purchased to more effectively filter out more dangerous substances, using the filter's listed level as the counteract level.</p>\n<p>The counteract modifier is [[/r 1d20+5]] for the @Compendium[pf2e.equipment-srd.Replacement Filter (Level 1)]{level 1 filter}, [[/r 1d20+9]] for the @Compendium[pf2e.equipment-srd.Replacement Filter (Level 5)]{level 5 filter}, and [[/r 1d20+17]] for the @Compendium[pf2e.equipment-srd.Replacement Filter (Level 10)]{ level 10 filter}.</p>\n<p>If you pour a liquid other than water, such as a potion or beverage, into the purifier, the filtration process negates the liquid's effects and ruins the taste. The center of the tube can be unscrewed from the ends to access and replace the chambers of purifying agents. Each filter can be used to cleanse up to 10 gallons of water at a rate of about 1 gallon every 20 minutes.</p>"
        },
        "equipped": {
            "value": false
        },
        "equippedBulk": {
            "value": ""
        },
        "hardness": {
            "value": 0
        },
        "hp": {
            "value": 0
        },
        "identification": {
            "misidentified": {},
            "status": "identified",
            "unidentified": {
                "data": {
                    "description": {
                        "value": ""
                    }
                },
                "img": "",
                "name": ""
            }
        },
        "invested": {
            "value": false
        },
        "level": {
            "value": 0
        },
        "maxHp": {
            "value": 0
        },
        "negateBulk": {
            "value": "0"
        },
        "preciousMaterial": {
            "value": ""
        },
        "preciousMaterialGrade": {
            "value": ""
        },
        "price": {
            "value": "5 gp"
        },
        "quantity": {
            "value": 1
        },
        "rules": [],
        "schema": {
            "lastMigration": null,
            "version": 0.643
        },
        "size": {
            "value": "med"
        },
        "source": {
            "value": ""
        },
        "stackGroup": {
            "value": ""
        },
        "traits": {
            "custom": "",
            "rarity": {
                "value": "common"
            },
            "usage": {
                "value": "held-in-two-hands"
            },
            "value": []
        },
        "usage": {
            "value": "held-in-one-hand"
        },
        "weight": {
            "value": "L"
        }
    },
    "effects": [],
    "flags": {},
    "img": "systems/pf2e/icons/equipment/adventuring-gear/water-purifier.webp",
    "name": "Water Purifier",
    "type": "equipment"
}
