{
    "_id": "UNdSfmCEICYna9ki",
    "data": {
        "attributes": {
            "ac": {
                "value": 16
            },
            "hardness": 5,
            "hasHealth": true,
            "hp": {
                "details": "",
                "max": 24,
                "temp": 0,
                "value": 24
            },
            "stealth": {
                "details": "<p>(trained)</p>",
                "value": 10
            }
        },
        "creatureType": "",
        "details": {
            "description": "<p>Daemonic curses slither and crawl through malevolent runes carved in four stone pillars. HP is per-pillar.</p>",
            "disable": "<p><span data-pf2-skill-check=\"thievery\" data-pf2-label=\"Disable Thievery DC\" data-pf2-dc=\"17\" data-pf2-show-dc=\"gm\">Thievery</span> (trained) to scratch out a pillar's runes, <em>@Compendium[pf2e.spells-srd.Dispel Magic]{Dispel Magic}</em> (1st level; counteract DC 15) to counteract a pillar's magic, or <span data-pf2-skill-check=\"athletics\" data-pf2-traits=\"action:force-open\" data-pf2-label=\"Disable Athletics DC\" data-pf2-dc=\"18\" data-pf2-show-dc=\"gm\">Athletics (Force Open)</span> to push a pillar over. Disabling a pillar requires two actions. Disabling all four pillars or slaying Sezruth disables the trap</p>",
            "isComplex": true,
            "level": 1,
            "reset": "",
            "routine": "<p><strong>Routine (4 actions):</strong> The trap loses 1 action each turn for each disabled pillar. On its initiative, the trap uses each action to afflict a different non-evil creature in the room with thirst. The creature must attempt a <span data-pf2-saving-throw=\"fortitude\" data-pf2-traits=\"damaging-effect\" data-pf2-label=\"Foretold Ruin DC\" data-pf2-dc=\"17\" data-pf2-show-dc=\"gm\">Fortitude</span> save.</p>\n<hr />\n<p><strong>Critical Success:</strong> The creature is temporarily immune to additional negative effects from the foretold ruin hazard's reaction for 24 hours. The hazard has no awareness of this immunity and continues to target this creature.</p>\n<p><strong>Success:</strong> The creature is unaffected.</p>\n<p><strong>Failure:</strong> The creature is @Compendium[pf2e.conditionitems.Fatigued]{Fatigued} until they drink water.</p>\n<p>If the creature was already fatigued, they take [[/r 1d6 #nonlethal mental]] nonlethal mental damage.</p>\n<p><strong>Critical Failure:</strong> The creature is fatigued until they drink water and takes [[/r 1d6 #nonlethal mental]] nonlethal mental damage.</p>\n<p>If the creature was already fatigued, they instead take [[/r 2d6 #nonlethal mental]] nonlethal mental damage.</p>"
        },
        "recallKnowledgeText": "",
        "saves": {
            "fortitude": {
                "rank": 0,
                "saveDetail": "",
                "value": 10
            },
            "reflex": {
                "rank": 0,
                "saveDetail": "",
                "value": 4
            },
            "will": {
                "rank": 0,
                "saveDetail": "",
                "value": null
            }
        },
        "schema": {
            "lastMigration": null,
            "version": 0.642
        },
        "source": {
            "value": "PFS 2-21: In Pursuit of Water"
        },
        "statusEffects": [],
        "traits": {
            "ci": [],
            "di": {
                "custom": "",
                "selected": {},
                "value": [
                    "precision",
                    "critical-hits",
                    "object-immunities"
                ]
            },
            "dr": [],
            "dv": [],
            "rarity": {
                "value": "common"
            },
            "size": {
                "value": "med"
            },
            "traits": {
                "custom": "",
                "value": [
                    "magical",
                    "trap"
                ]
            }
        }
    },
    "effects": [],
    "flags": {},
    "img": "systems/pf2e/icons/default-icons/hazard.svg",
    "items": [
        {
            "_id": "9IJ8tkod9DJIHiAj",
            "data": {
                "actionCategory": {
                    "value": ""
                },
                "actionType": {
                    "value": "reaction"
                },
                "actions": {
                    "value": "1"
                },
                "description": {
                    "value": "<p><em data-visibility=\"gm\"><strong>Trigger</strong> A non-evil creature enters the room.</em></p>\n<p><strong>Effect</strong> The trap casts @Compendium[pf2e.spells-srd.Phantom Pain]{Phantom Pain} on the creature, and then rolls initiative.</p>\n<p><span data-pf2-saving-throw=\"will\" data-pf2-traits=\"mental,nonlethal\" data-pf2-label=\"Phantom Pain DC\" data-pf2-dc=\"17\" data-pf2-show-dc=\"gm\">Will Save</span></p>"
                },
                "requirements": {
                    "value": ""
                },
                "rules": [],
                "schema": {
                    "lastMigration": null,
                    "version": 0.642
                },
                "slug": null,
                "source": {
                    "value": ""
                },
                "traits": {
                    "custom": "",
                    "rarity": {
                        "value": "common"
                    },
                    "value": []
                },
                "trigger": {
                    "value": ""
                },
                "weapon": {
                    "value": ""
                }
            },
            "effects": [],
            "flags": {},
            "img": "systems/pf2e/icons/actions/Reaction.webp",
            "name": "Spite",
            "sort": 0,
            "type": "action"
        }
    ],
    "name": "Foretold Ruin (1-2)",
    "token": {
        "actorLink": false,
        "alpha": 1,
        "bar1": {
            "attribute": "attributes.hp"
        },
        "bar2": {
            "attribute": ""
        },
        "brightLight": 0,
        "brightSight": 0,
        "dimLight": 0,
        "dimSight": 0,
        "displayBars": 20,
        "displayName": 20,
        "disposition": 0,
        "elevation": null,
        "flags": {},
        "height": 1,
        "img": "systems/pf2e/icons/default-icons/hazard.svg",
        "lightAlpha": 0.25,
        "lightAngle": 0,
        "lightAnimation": {
            "intensity": 5,
            "speed": 5
        },
        "lightColor": null,
        "lockRotation": false,
        "mirrorX": false,
        "mirrorY": false,
        "name": "Foretold Ruin",
        "randomImg": false,
        "rotation": 0,
        "scale": 1,
        "sightAngle": 0,
        "tint": null,
        "vision": false,
        "width": 1,
        "x": null,
        "y": null
    },
    "type": "hazard"
}
