{
    "_id": "52CdldlWMiVTZk1F",
    "data": {
        "actionCategory": {
            "value": "interaction"
        },
        "actionType": {
            "value": "passive"
        },
        "actions": {
            "value": ""
        },
        "description": {
            "chat": "",
            "unidentified": "",
            "value": "<p>This monster can form a coven with two or more other creatures who also have the coven ability. This involves performing an 8-hour ceremony with all prospective coven members. After the coven is formed, each of its members gains elite adjustments, adjusting their levels accordingly. Coven members can sense other members' locations and conditions by spending a single action, which has the concentrate trait, and can sense what another coven member is sensing as a two-action activity, which has the concentrate trait as well.</p>\n<p>Covens also grant spells and rituals to their members, but these can be cast only in cooperation between three coven members who are all within 30 feet of one another. A coven member can contribute to a coven spell with a single-action spellcasting activity that has a single verbal component. If two coven members have contributed these actions within the last round, a third member can cast a coven spell on her turn by spending the normal spellcasting actions. A coven can cast its coven spells an unlimited number of times but can cast only one coven spell each round. All covens grant the 8th-level @Compendium[pf2e.spells-srd.Baleful Polymorph]{Baleful Polymorph} spell and all the following spells, which the coven can cast at any level up to 5th: @Compendium[pf2e.spells-srd.Augury]{Augury}, @Compendium[pf2e.spells-srd.Charm]{Charm}, @Compendium[pf2e.spells-srd.Clairaudience]{Clairaudience}, @Compendium[pf2e.spells-srd.Clairvoyance]{Clairvoyance}, @Compendium[pf2e.spells-srd.Dream Message]{Dream Message}, @Compendium[pf2e.spells-srd.Illusory Disguise]{Illusory Disguise}, @Compendium[pf2e.spells-srd.Illusory Scene]{Illusory Scene}, @Compendium[pf2e.spells-srd.Prying Eye]{Prying Eye}, and @Compendium[pf2e.spells-srd.Talking Corpse]{Talking Corpse}. Individual creatures with the coven ability also grant additional spells to any coven they join. A coven can also cast the @Compendium[pf2e.spells-srd.Control Weather]{Control Weather} ritual, with a DC of 23 instead of the standard DC.</p>\n<p>If a coven member leaving the coven or the death of a coven member brings the coven below three members, the remaining members keep their elite adjustments for 24 hours, but without enough members to contribute the necessary actions, they can't cast coven spells.</p>"
        },
        "requirements": {
            "value": ""
        },
        "rules": [],
        "schema": {
            "lastMigration": null,
            "version": 0.643
        },
        "source": {
            "value": ""
        },
        "traits": {
            "custom": "",
            "rarity": {
                "value": "common"
            },
            "value": [
                "divination",
                "mental",
                "occult"
            ]
        },
        "trigger": {
            "value": ""
        },
        "weapon": {
            "value": ""
        }
    },
    "effects": [],
    "flags": {},
    "img": "systems/pf2e/icons/default-icons/action.svg",
    "name": "Coven",
    "type": "action"
}
