{
    "_id": "7qjfYsLNTr17Aftf",
    "data": {
        "actionCategory": {
            "value": ""
        },
        "actionType": {
            "value": "action"
        },
        "actions": {
            "value": "2"
        },
        "description": {
            "chat": "",
            "unidentified": "",
            "value": "<p><strong>Frequency</strong> once per day</p>\n<hr />\n<p>Energy bursts forth from your body. You deal <a class=\"inline-roll roll\" title=\"1d6\" data-mode=\"roll\" data-flavor=\"\" data-formula=\"1d6\"> 1d6</a> damage of your chosen type to all adjacent creatures (basic Reflex save using your class DC or spell DC, whichever is higher). At 3rd level, and every 2 levels thereafter, this damage increases by <a class=\"inline-roll roll\" title=\"1d6\" data-mode=\"roll\" data-flavor=\"\" data-formula=\"1d6\"> 1d6</a>.</p>"
        },
        "requirements": {
            "value": ""
        },
        "rules": [],
        "schema": {
            "lastMigration": null,
            "version": 0.643
        },
        "source": {
            "value": ""
        },
        "traits": {
            "custom": "",
            "rarity": {
                "value": "common"
            },
            "value": [
                "primal",
                "evocation"
            ]
        },
        "trigger": {
            "value": ""
        },
        "weapon": {
            "value": ""
        }
    },
    "effects": [],
    "flags": {},
    "img": "systems/pf2e/icons/actions/TwoActions.webp",
    "name": "Energy Emanation",
    "type": "action"
}
