{
    "_id": "rSpCV0leurp2Bg2d",
    "data": {
        "actionCategory": {
            "value": ""
        },
        "actionType": {
            "value": "reaction"
        },
        "actions": {
            "value": ""
        },
        "description": {
            "chat": "",
            "unidentified": "",
            "value": "<p><strong>Prerequisites</strong>: At least one arcane or occult innate spell gained from a gnome heritage or gnome ancestry feat<br /><strong>Frequency</strong>: Once per day<br /><strong>Trigger</strong>: You are attacked by a foe</p>\n<hr />\n<p>The magic within you manifests as a natural reaction to threats. You gain the effects of @Compendium[pf2e.spells-srd.Mirror Image]{Mirror Image} but with two images instead of three. The tradition of this action matches the tradition of your gnome ancestry options.</p>"
        },
        "requirements": {
            "value": ""
        },
        "rules": [],
        "schema": {
            "lastMigration": null,
            "version": 0.643
        },
        "source": {
            "value": ""
        },
        "traits": {
            "custom": "",
            "rarity": {
                "value": "common"
            },
            "selected": {},
            "value": [
                "gnome",
                "illusion",
                "visual"
            ]
        },
        "trigger": {
            "value": ""
        },
        "weapon": {
            "value": ""
        }
    },
    "effects": [],
    "flags": {},
    "img": "systems/pf2e/icons/actions/Reaction.webp",
    "name": "Instinctive Obfuscation",
    "type": "action"
}
