{
    "_id": "orjJjLdm4XNAcFi8",
    "data": {
        "actionCategory": {
            "value": "offensive"
        },
        "actionType": {
            "value": "action"
        },
        "actions": {
            "value": "3"
        },
        "description": {
            "chat": "",
            "unidentified": "",
            "value": "<p><strong>Requirements</strong> You can see and hear the creature you intend to mark</p>\n<hr />\n<p><strong>Effect</strong> You designate a single creature as your mark. This lasts until the mark dies or you use Mark for Death again. You gain a +2 circumstance bonus to Perception checks to @Compendium[pf2e.actionspf2e.Seek]{Seek} your mark and on Deception checks to @Compendium[pf2e.actionspf2e.Feint]{Feint} against your mark.</p>\n<p>Your agile and finesse weapons and unarmed attacks gain the backstabber and deadly d6 weapon traits when you're attacking your mark.</p>\n<p>If the weapon or unarmed attack already has the deadly trait, increase the size of the deadly damage die by one step instead of giving it deadly d6.</p>"
        },
        "requirements": {
            "value": ""
        },
        "rules": [],
        "schema": {
            "lastMigration": null,
            "version": 0.643
        },
        "source": {
            "value": ""
        },
        "traits": {
            "custom": "",
            "rarity": {
                "value": "common"
            },
            "value": []
        },
        "trigger": {
            "value": ""
        },
        "weapon": {
            "value": ""
        }
    },
    "effects": [],
    "flags": {},
    "img": "systems/pf2e/icons/actions/ThreeActions.webp",
    "name": "Mark for Death",
    "type": "action"
}
