{
    "_id": "ModBoFdCi7YQU4gP",
    "data": {
        "description": {
            "chat": "",
            "unidentified": "",
            "value": "<p>Granted by @Compendium[pf2e.equipment-srd.Potion of Swimming (Greater)]{Potion of Swimming (Greater)}</p>\n<p>Automatically applied effects:</p>\n<ul>\n<li>gain a swim Speed equal to your land Speed</li>\n</ul>"
        },
        "duration": {
            "expiry": "turn-start",
            "sustained": false,
            "unit": "hours",
            "value": 1
        },
        "level": {
            "value": 11
        },
        "rules": [
            {
                "key": "PF2E.RuleElement.BaseSpeed",
                "selector": "swim",
                "value": "@attributes.speed.value"
            },
            {
                "key": "PF2E.RuleElement.TokenEffectIcon"
            }
        ],
        "schema": {
            "lastMigration": null,
            "version": 0.643
        },
        "source": {
            "value": ""
        },
        "start": {
            "initiative": null,
            "value": 0
        },
        "traits": {
            "custom": "",
            "rarity": {
                "value": "common"
            },
            "value": []
        }
    },
    "effects": [],
    "flags": {},
    "img": "systems/pf2e/icons/equipment/consumables/potions/potion-of-swimming.webp",
    "name": "Effect: Potion of Swimming (Greater)",
    "type": "effect"
}
