{
    "_id": "hkU92nqUYBQLQSMt",
    "data": {
        "actionCategory": {
            "value": ""
        },
        "actionType": {
            "value": "reaction"
        },
        "actions": {
            "value": ""
        },
        "description": {
            "chat": "",
            "unidentified": "",
            "value": "<p><strong>Frequency</strong> once per day.</p>\n<p><strong>Trigger</strong> Your turn begins.</p>\n<hr />\n<p>You explode in flame. Enemies in a 20-foot emanation take [[/r 7d6 #fire]] fire damage (basic Reflex save using your class DC or spell DC, whichever is higher). Allies in the area are @Compendium[pf2e.conditionitems.Quickened]{Quickened} for 1 round and can use the additional action to Strike or Stride.</p>"
        },
        "featType": {
            "value": "ancestry"
        },
        "level": {
            "value": 17
        },
        "location": "",
        "prerequisites": {
            "value": []
        },
        "rules": [],
        "schema": {
            "lastMigration": null,
            "version": 0.643
        },
        "source": {
            "value": ""
        },
        "traits": {
            "custom": "",
            "rarity": {
                "value": "common"
            },
            "value": [
                "concentrate",
                "evocation",
                "fire",
                "ifrit",
                "primal"
            ]
        }
    },
    "effects": [],
    "flags": {},
    "img": "systems/pf2e/icons/features/feats/feats.webp",
    "name": "Blazing Aura",
    "type": "feat"
}
