{
    "_id": "bEh5qUgX5eFaQwzU",
    "data": {
        "actionCategory": {
            "value": ""
        },
        "actionType": {
            "value": "passive"
        },
        "actions": {
            "value": ""
        },
        "description": {
            "chat": "",
            "unidentified": "",
            "value": "<p>You favor weapons that you can use with quick, darting slashes like a cat's claws. You are trained with the @Compendium[pf2e.equipment-srd.Hatchet]{Hatchet}, @Compendium[pf2e.equipment-srd.Kama]{Kama}, @Compendium[pf2e.equipment-srd.Kukri]{Kukri}, @Compendium[pf2e.equipment-srd.Scimitar]{Scimitar}, and @Compendium[pf2e.equipment-srd.Sickle]{Sickle}.</p>\n<p>In addition, you gain access to kama, kukris, and all uncommon catfolk weapons. For you, martial catfolk weapons are simple weapons and advanced catfolk weapons are martial weapons.</p>"
        },
        "featType": {
            "value": "ancestry"
        },
        "level": {
            "value": 1
        },
        "location": "",
        "prerequisites": {
            "value": []
        },
        "rules": [],
        "schema": {
            "lastMigration": null,
            "version": 0.643
        },
        "source": {
            "value": ""
        },
        "traits": {
            "custom": "",
            "rarity": {
                "value": "common"
            },
            "value": [
                "catfolk"
            ]
        }
    },
    "effects": [
        {
            "_id": "JH7mzNrXaKR3242u",
            "changes": [
                {
                    "key": "data.martial.weapon-base-hatchet.rank",
                    "mode": 4,
                    "value": "1"
                },
                {
                    "key": "data.martial.weapon-base-kama.rank",
                    "mode": 4,
                    "value": "1"
                },
                {
                    "key": "data.martial.weapon-base-kukri.rank",
                    "mode": 4,
                    "value": "1"
                },
                {
                    "key": "data.martial.weapon-base-scimitar.rank",
                    "mode": 4,
                    "value": "1"
                },
                {
                    "key": "data.martial.weapon-base-sickle.rank",
                    "mode": 4,
                    "value": "1"
                },
                {
                    "key": "data.martial.martial.familiarity",
                    "mode": 5,
                    "value": "{ \"trait\": \"catfolk\", \"category\": \"advanced\" }"
                },
                {
                    "key": "data.martial.simple.familiarity",
                    "mode": 5,
                    "value": "{ \"trait\": \"catfolk\", \"category\": \"martial\" }"
                }
            ],
            "disabled": false,
            "duration": {
                "startTime": null
            },
            "flags": {},
            "icon": "systems/pf2e/icons/features/feats/feats.webp",
            "label": "Catfolk Weapon Familiarity",
            "origin": "",
            "tint": null,
            "transfer": true
        }
    ],
    "flags": {},
    "img": "systems/pf2e/icons/features/feats/feats.webp",
    "name": "Catfolk Weapon Familiarity",
    "type": "feat"
}
