{
    "_id": "8YSwzLNlmBLoEyUj",
    "data": {
        "actionCategory": {
            "value": ""
        },
        "actionType": {
            "value": "action"
        },
        "actions": {
            "value": "3"
        },
        "description": {
            "chat": "",
            "unidentified": "",
            "value": "<p><strong>Requirements</strong> You are in Sky and Heaven Stance.</p>\n<hr />\n<p>You Stride up to your Speed and your ki enshrouds your limbs in a terrifying stormy energy, increasing the reach of your Sky and Heaven Stance unarmed attacks by 5 feet.</p>\n<p>At the end of your movement, make up to three Strikes against a target you can reach, each at a -2 penalty. Each attack counts toward your multiple attack penalty, but the multiple attack penalty doesn't increase until after you have made all your attacks. Instead of the usual slashing or piercing damage, the damage for these Strikes is either electricity or sonic, as you choose with each Strike. If you successfully hit with all three Strikes, the target is @Compendium[pf2e.conditionitems.Drained]{Drained 3}.</p>"
        },
        "featType": {
            "value": "archetype"
        },
        "level": {
            "value": 20
        },
        "prerequisites": {
            "value": [
                {
                    "value": "Sky and Heaven Stance"
                }
            ]
        },
        "rules": [],
        "schema": {
            "lastMigration": null,
            "version": 0.643
        },
        "source": {
            "value": ""
        },
        "traits": {
            "custom": "",
            "rarity": {
                "value": "common"
            },
            "selected": {
                "archetype": "Archetype",
                "electricity": "Electricity",
                "evocation": "Evocation",
                "force": "Force",
                "sonic": "Sonic"
            },
            "value": [
                "archetype",
                "electricity",
                "evocation",
                "force",
                "sonic"
            ]
        }
    },
    "effects": [],
    "flags": {},
    "img": "systems/pf2e/icons/features/feats/feats.webp",
    "name": "Cross the Final Horizon",
    "type": "feat"
}
