{
    "_id": "ehPnY1PuPK7EXkYc",
    "data": {
        "actionCategory": {
            "value": ""
        },
        "actionType": {
            "value": "passive"
        },
        "actions": {
            "value": ""
        },
        "description": {
            "value": "<p><strong>Access</strong> Matanji ethnicity</p>\n\n<p><strong>Frequency</strong> once per minute</p>\n<p><strong>Trigger</strong> You successfully Strike a living creature that has the fiend trait with your tusks unarmed attack.</p>\n<hr />\n<p>Just the taste of fiendish blood is enough to send blood rushing through your veins in a supernatural fury. You become @Compendium[pf2e.conditionitems.Quickened]{Quickened} until the end of your next turn and you can use the extra action to make a tusks Strike, Stride, or Step.</p>"
        },
        "featType": {
            "value": "ancestry"
        },
        "level": {
            "value": 5
        },
        "location": "",
        "prerequisites": {
            "value": [
                "tusks unarmed attack"
            ]
        },
        "rules": [],
        "schema": {
            "lastMigration": null,
            "version": 0.643
        },
        "source": {
            "value": ""
        },
        "traits": {
            "custom": "",
            "rarity": {
                "value": "uncommon"
            },
            "value": [
                "orc"
            ]
        }
    },
    "effects": [],
    "flags": {},
    "img": "systems/pf2e/icons/default-icons/feats.webp",
    "name": "Demonblood Frenzy",
    "type": "feat"
}
