{
    "_id": "zfTmb78yGZzNpgU3",
    "data": {
        "actionCategory": {
            "value": ""
        },
        "actionType": {
            "value": "passive"
        },
        "actions": {
            "value": ""
        },
        "description": {
            "chat": "",
            "unidentified": "",
            "value": "<p>You know how to throw two weapons as easily as @Compendium[pf2e.actionspf2e.Strike]{Strike} with them.</p>\n<p>Whenever a dual-weapon warrior feat allows you to make a melee Strike, you can instead make a ranged Strike with a thrown weapon or a one-handed ranged weapon you are wielding.</p>\n<p>Any effects from these feats that apply to one-handed melee weapons or melee Strikes also apply to one-handed ranged weapons and ranged Strikes.</p>"
        },
        "featType": {
            "value": "archetype"
        },
        "level": {
            "value": 4
        },
        "prerequisites": {
            "value": [
                {
                    "value": "Dual-Weapon Warrior Dedication"
                }
            ]
        },
        "rules": [],
        "schema": {
            "lastMigration": null,
            "version": 0.643
        },
        "source": {
            "value": ""
        },
        "traits": {
            "custom": "",
            "rarity": {
                "value": "common"
            },
            "value": [
                "archetype"
            ]
        }
    },
    "effects": [],
    "flags": {},
    "img": "systems/pf2e/icons/features/feats/feats.webp",
    "name": "Dual Thrower",
    "type": "feat"
}
