{
    "_id": "BQzExsEZrwGsJD66",
    "data": {
        "actionCategory": {
            "value": ""
        },
        "actionType": {
            "value": "passive"
        },
        "actions": {
            "value": ""
        },
        "description": {
            "chat": "",
            "unidentified": "",
            "value": "<p>During your daily preparations, you find medicinal plants endemic to your location. Until your next preparations, you can spend an additional batch of herbs to add a benefit to an item you create with your herbalism.</p>\n<p>The benefit of the special herbs affects the creature that the item is applied to; if the benefit is not immediate, it lasts for 1 minute unless otherwise stated. This adjustment counts as an additive, so you can't include another additive without spoiling the item.</p>\n<ul>\n<li><strong>Aquatic</strong> Gain a +1 circumstance bonus to Fortitude saves.</li>\n<li><strong>Arctic</strong> For 1 hour, treat environmental cold effects as if they were one step less severe.</li>\n<li><strong>Desert</strong> For 1 hour, treat environmental heat effects as if they were one step less severe.</li>\n<li><strong>Forest</strong> Gain a +2 circumstance bonus to saves against disease and poison effects.</li>\n<li><strong>Mountain</strong> Gain a +1 circumstance bonus to Reflex saves.</li>\n<li><strong>Plains</strong> Gain a +1 circumstance bonus to Will saves.</li>\n<li><strong>Swamp</strong> Remove one source of persistent bleed damage.</li>\n<li><strong>Underground</strong> Gain a +1 circumstance bonus to Perception.</li>\n</ul>"
        },
        "featType": {
            "value": "archetype"
        },
        "level": {
            "value": 6
        },
        "prerequisites": {
            "value": [
                {
                    "value": "Herbalist Dedication"
                },
                {
                    "value": "trained in Survival"
                }
            ]
        },
        "rules": [],
        "schema": {
            "lastMigration": null,
            "version": 0.643
        },
        "source": {
            "value": ""
        },
        "traits": {
            "custom": "",
            "rarity": {
                "value": "common"
            },
            "value": [
                "archetype"
            ]
        }
    },
    "effects": [],
    "flags": {},
    "img": "systems/pf2e/icons/features/feats/feats.webp",
    "name": "Endemic Herbs",
    "type": "feat"
}
