{
    "_id": "VU7aZC7L08Mk1GVA",
    "data": {
        "actionCategory": {
            "value": ""
        },
        "actionType": {
            "value": "passive"
        },
        "actions": {
            "value": ""
        },
        "description": {
            "chat": "",
            "unidentified": "",
            "value": "<p>You've sworn an oath to slay the alien abominations that lurk in the remote corners of Golarion. Add the following tenet to your champion's code, after the other tenets. \"You must slay evil aberrations you encounter as long as you have a reasonable chance of success.\"</p>\n<p>If you use @Compendium[pf2e.actionspf2e.Liberating Step]{Liberating Step} triggered by an evil aberration, your ally gains a +4 circumstance bonus to checks granted by your Liberating Step, and the ally can @Compendium[pf2e.actionspf2e.Step]{Step} twice afterward.</p>\n<p>@Compendium[pf2e.feat-effects.Effect: Liberating Step (vs. Aberration)]{Effect: Liberating Step (vs. Aberration)}</p>\n<p>You don't consider evil aberrations to be legitimate authorities, even in nations they rule.</p>"
        },
        "featType": {
            "value": "class"
        },
        "level": {
            "value": 2
        },
        "location": "",
        "prerequisites": {
            "value": [
                {
                    "value": "tenets of good"
                },
                {
                    "value": "liberator cause"
                }
            ]
        },
        "rules": [],
        "schema": {
            "lastMigration": null,
            "version": 0.643
        },
        "source": {
            "value": ""
        },
        "traits": {
            "custom": "",
            "rarity": {
                "value": "common"
            },
            "value": [
                "champion",
                "oath"
            ]
        }
    },
    "effects": [],
    "flags": {},
    "img": "systems/pf2e/icons/features/feats/feats.webp",
    "name": "Esoteric Oath (Liberator)",
    "type": "feat"
}
