{
    "_id": "sgo7J9BVofBqwlsF",
    "data": {
        "actionCategory": {
            "value": ""
        },
        "actionType": {
            "value": "passive"
        },
        "actions": {
            "value": ""
        },
        "description": {
            "chat": "",
            "unidentified": "",
            "value": "<p>You have studied a specific terrain to overcome its challenges. Choose aquatic, arctic, desert, forest, mountain, plains, sky, swamp, or underground as your favored terrain.</p>\n<p>When in that terrain, you can ignore the effects of non-magical diffcult terrain.</p>\n<p>If you have the @Compendium[pf2e.classfeatures.Wild Stride]{Wild Stride} class feature, you gain a second benefit while in your favored terrain, depending on your choice.</p>\n<ul>\n<li><strong>Aquatic</strong> You gain a swim Speed equal to your Speed. If you already had a swim Speed, you gain a +10-foot status bonus to your swim Speed.</li>\n<li><strong>Arctic</strong> You need to eat and drink only one-tenth as much as usual, you aren’t affected by severe or extreme cold, and you can walk across ice and snow at full Speed without needing to Balance.</li>\n<li><strong>Desert</strong> You need to eat and drink only one-tenth as much as usual, you aren’t affected by severe or extreme heat, and you can walk along sand at full Speed without needing to Balance.</li>\n<li><strong>Forest, Mountain, or Underground</strong> You gain a climb Speed equal to your Speed. If you already had a climb Speed, you gain a +10-foot status bonus to your climb Speed.</li>\n<li><strong>Plains</strong> You gain a +10-foot status bonus to your land Speed.</li>\n<li><strong>Sky</strong> You gain a +10-foot status bonus to your fly Speed, if you have one.</li>\n<li><strong>Swamp</strong> You can move across bogs at full Speed, even if they are deep enough to be greater difficult terrain or to normally require you to Swim.</li>\n</ul>\n<p>@Compendium[pf2e.feat-effects.Favored Terrain (Gain Climb Speed)]{Favored Terrain (Gain Climb Speed)}</p>\n<p>@Compendium[pf2e.feat-effects.Favored Terrain (Increase Climb Speed)]{Favored Terrain (Increase Climb Speed)}</p>\n<p>@Compendium[pf2e.feat-effects.Favored Terrain (Gain Swim Speed)]{Favored Terrain (Gain Swim Speed)}</p>\n<p>@Compendium[pf2e.feat-effects.Favored Terrain (Increase Swim Speed)]{Favored Terrain (Increase Swim Speed)}</p>"
        },
        "featType": {
            "value": "class"
        },
        "level": {
            "value": 2
        },
        "location": "",
        "prerequisites": {
            "value": []
        },
        "rules": [],
        "schema": {
            "lastMigration": null,
            "version": 0.643
        },
        "source": {
            "value": ""
        },
        "traits": {
            "custom": "",
            "rarity": {
                "value": "common"
            },
            "value": [
                "ranger"
            ]
        }
    },
    "effects": [],
    "flags": {},
    "img": "systems/pf2e/icons/features/feats/feats.webp",
    "name": "Favored Terrain",
    "type": "feat"
}
