{
    "_id": "mCXoiMLAbGHGsZS3",
    "data": {
        "actionCategory": {
            "value": ""
        },
        "actionType": {
            "value": "passive"
        },
        "actions": {
            "value": ""
        },
        "description": {
            "chat": "",
            "unidentified": "",
            "value": "<p>You easily banish creatures with your weapon.</p>\n<p>You can use @Compendium[pf2e.feats-srd.Swift Banishment]{Swift Banishment} as long as you have a spell slot of 5th level or higher remaining, even if you don't have <em>banishment</em> prepared. You must sacrifice a prepared spell of 5th level or higher, and the <em>banishment</em> effect you create is heightened to the level of that spell. Your weapon serves as the special material component of <em>banishment</em>, causing the target to take the -2 penalty to its save against any banishment you cast using Swift Banishment.</p>"
        },
        "featType": {
            "value": "class"
        },
        "level": {
            "value": 18
        },
        "location": "",
        "prerequisites": {
            "value": [
                {
                    "value": "Swift Banishment"
                }
            ]
        },
        "rules": [],
        "schema": {
            "lastMigration": null,
            "version": 0.643
        },
        "source": {
            "value": ""
        },
        "traits": {
            "custom": "",
            "rarity": {
                "value": "common"
            },
            "value": [
                "cleric"
            ]
        }
    },
    "effects": [],
    "flags": {},
    "img": "systems/pf2e/icons/features/feats/feats.webp",
    "name": "Improved Swift Banishment",
    "type": "feat"
}
