{
    "_id": "9Eufa07qvXG41QmG",
    "data": {
        "actionCategory": {
            "value": ""
        },
        "actionType": {
            "value": "passive"
        },
        "actions": {
            "value": ""
        },
        "description": {
            "chat": "",
            "unidentified": "",
            "value": "<p>You deliver poisons in ways that maximize their harmful effects. When you apply a simple poison with @Compendium[pf2e.feats-srd.Poison Weapon]{Poison Weapon}, the poison deals <a class=\"inline-roll roll\" title=\"poison\" data-mode=\"roll\" data-flavor=\"poison\" data-formula=\"2d4\"> 2d4</a> poison damage instead of <a class=\"inline-roll roll\" title=\"poison\" data-mode=\"roll\" data-flavor=\"poison\" data-formula=\"1d4\"> 1d4</a> poison damage. You don't waste a poison you apply with Poison Weapon on a critically failed attack roll.</p>\n<p>@Compendium[pf2e.feat-effects.Effect: Improved Poison Weapon]{Effect: Improved Poison Weapon}</p>"
        },
        "featType": {
            "value": "class"
        },
        "level": {
            "value": 8
        },
        "location": "",
        "prerequisites": {
            "value": [
                {
                    "value": "Poison Weapon"
                }
            ]
        },
        "rules": [],
        "schema": {
            "lastMigration": null,
            "version": 0.643
        },
        "source": {
            "value": ""
        },
        "traits": {
            "custom": "",
            "rarity": {
                "value": "common"
            },
            "value": [
                "rogue"
            ]
        }
    },
    "effects": [],
    "flags": {},
    "img": "systems/pf2e/icons/features/feats/feats.webp",
    "name": "Improved Poison Weapon",
    "type": "feat"
}
