{
    "_id": "fCDC53WOOYrsyVIR",
    "data": {
        "actionCategory": {
            "value": ""
        },
        "actionType": {
            "value": "action"
        },
        "actions": {
            "value": "1"
        },
        "description": {
            "chat": "",
            "unidentified": "",
            "value": "<p>After your first shot singles out your opponent's position, you direct another that ricochets around obstacles and strikes unerringly.</p>\n<p>Make a ranged weapon Strike against a creature you previously attacked this turn. You ignore the target's @Compendium[pf2e.conditionitems.Concealed]{Concealed} condition and all cover.</p>"
        },
        "featType": {
            "value": "class"
        },
        "level": {
            "value": 12
        },
        "prerequisites": {
            "value": [
                {
                    "value": "Incredible Aim"
                }
            ]
        },
        "rules": [],
        "schema": {
            "lastMigration": null,
            "version": 0.643
        },
        "source": {
            "value": ""
        },
        "traits": {
            "custom": "",
            "rarity": {
                "value": "common"
            },
            "value": [
                "concentrate",
                "fighter",
                "press"
            ]
        }
    },
    "effects": [],
    "flags": {},
    "img": "systems/pf2e/icons/features/feats/feats.webp",
    "name": "Incredible Ricochet",
    "type": "feat"
}
