{
    "_id": "AXy4A7zTYk1JAiOV",
    "data": {
        "actionCategory": {
            "value": ""
        },
        "actionType": {
            "value": "passive"
        },
        "actions": {
            "value": ""
        },
        "description": {
            "chat": "",
            "unidentified": "",
            "value": "<p>You have a literal sixth sense for ambient magic in your vicinity.</p>\n<p>You can sense the presence of magic auras as though you were always using a 1st-level @Compendium[pf2e.spells-srd.Detect Magic]{Detect Magic} spell. This detects magic in your field of vision only.</p>\n<p>When you @Compendium[pf2e.actionspf2e.Seek]{Seek}, you gain the benefits of a 3rd-level <em>detect magic</em> spell on things you see (in addition to the normal benefits of Seeking). You can turn this sense off and on with a free action at the start or the end of your turn.</p>"
        },
        "featType": {
            "value": "class"
        },
        "level": {
            "value": 12
        },
        "prerequisites": {
            "value": []
        },
        "rules": [],
        "schema": {
            "lastMigration": null,
            "version": 0.643
        },
        "source": {
            "value": ""
        },
        "traits": {
            "custom": "",
            "rarity": {
                "value": "common"
            },
            "value": [
                "detection",
                "divination",
                "oracle",
                "sorcerer",
                "wizard"
            ]
        }
    },
    "effects": [],
    "flags": {},
    "img": "systems/pf2e/icons/features/feats/feats.webp",
    "name": "Magic Sense",
    "type": "feat"
}
