{
    "_id": "ZFkCMl63ogK55Otq",
    "data": {
        "actionCategory": {
            "value": ""
        },
        "actionType": {
            "value": "passive"
        },
        "actions": {
            "value": ""
        },
        "description": {
            "chat": "",
            "unidentified": "",
            "value": "<p>Your patron grants you even greater secrets. Choose a major, greater, or basic lesson from the list of @Compendium[pf2e.classfeatures.Witch Lessons]{Witch Lessons}. You gain its associated hex, and your familiar learns the associated spell. Increase the number of Focus Points in your focus pool by 1.</p>\n<p><strong>Special</strong> You can select this feat a second time if you're 14th level or higher, and a third time if you're 18th level or higher. Choose a different lesson each time.</p>"
        },
        "featType": {
            "value": "class"
        },
        "level": {
            "value": 10
        },
        "prerequisites": {
            "value": []
        },
        "rules": [],
        "schema": {
            "lastMigration": null,
            "version": 0.643
        },
        "source": {
            "value": ""
        },
        "traits": {
            "custom": "",
            "rarity": {
                "value": "common"
            },
            "value": [
                "witch"
            ]
        }
    },
    "effects": [],
    "flags": {},
    "img": "systems/pf2e/icons/features/feats/feats.webp",
    "name": "Major Lesson",
    "type": "feat"
}
