{
    "_id": "6eXffyvqxpIzig2O",
    "data": {
        "actionCategory": {
            "value": ""
        },
        "actionType": {
            "value": "passive"
        },
        "actions": {
            "value": ""
        },
        "description": {
            "chat": "",
            "unidentified": "",
            "value": "<p>Nanites augment your attacks. You can choose to activate @Compendium[pf2e.feats-srd.Nanite Surge]{Nanite Surge} when you attempt an attack roll, instead of when you attempt a skill check. If you do, you gain a +1 status bonus to the triggering attack roll.</p>"
        },
        "featType": {
            "value": "ancestry"
        },
        "level": {
            "value": 9
        },
        "location": "",
        "prerequisites": {
            "value": [
                {
                    "value": "Nanite Surge"
                }
            ]
        },
        "rules": [
            {
                "key": "PF2E.RuleElement.FlatModifier",
                "predicate": {
                    "all": [
                        "nanite-surge"
                    ]
                },
                "roll-options": [
                    "all"
                ],
                "selector": "attack",
                "type": "status",
                "value": 1
            }
        ],
        "schema": {
            "lastMigration": null,
            "version": 0.643
        },
        "source": {
            "value": ""
        },
        "traits": {
            "custom": "",
            "rarity": {
                "value": "common"
            },
            "value": [
                "android"
            ]
        }
    },
    "effects": [],
    "flags": {},
    "img": "systems/pf2e/icons/features/feats/feats.webp",
    "name": "Offensive Subroutine",
    "type": "feat"
}
