{
    "_id": "aGpH394T1xr2ey88",
    "data": {
        "actionCategory": {
            "value": "interaction"
        },
        "actionType": {
            "value": "passive"
        },
        "actions": {
            "value": ""
        },
        "description": {
            "value": "<p>You were taught how to hunt as part of a pack. You gain a +2 circumstance bonus to checks to Aid, and your allies gain a +2 circumstance bonus to checks to Aid you.</p>"
        },
        "featType": {
            "value": "ancestry"
        },
        "level": {
            "value": 1
        },
        "location": "",
        "prerequisites": {
            "value": []
        },
        "rules": [
            {
                "key": "PF2E.RuleElement.FlatModifier",
                "label": "Pack Hunter (to Aid)",
                "predicate": {
                    "all": [
                        "action:aid"
                    ]
                },
                "selector": "skill-check",
                "type": "circumstance",
                "value": 2
            }
        ],
        "schema": {
            "lastMigration": null,
            "version": 0.643
        },
        "source": {
            "value": ""
        },
        "traits": {
            "custom": "",
            "rarity": {
                "value": "common"
            },
            "value": [
                "gnoll"
            ]
        }
    },
    "effects": [],
    "flags": {},
    "img": "systems/pf2e/icons/default-icons/feats.webp",
    "name": "Pack Hunter",
    "type": "feat"
}
