{
    "_id": "D8XoWk1brpyW6oO2",
    "data": {
        "actionCategory": {
            "value": "offensive"
        },
        "actionType": {
            "value": "action"
        },
        "actions": {
            "value": "3"
        },
        "description": {
            "value": "<p><strong>Requirements</strong> You have at least three of the same contact poison.</p>\n<hr />\n<p>You have learned to saturate an area with poison in imitation of the techniques of your rival, Blue Viper. As part of this ability, you Interact to draw three vials of the same contact poison and throw them in the air, where they shatter and spread a poisonous deluge affecting a 20-foot burst within 60 feet. All creatures in the burst are automatically exposed to the poison, immediately bypassing any onset time, and must attempt a saving throw against that poison. The three vials must be identical, even if the poison can come in multiple types or different levels.</p>"
        },
        "featType": {
            "value": "class"
        },
        "level": {
            "value": 20
        },
        "location": "",
        "prerequisites": {
            "value": []
        },
        "rules": [],
        "schema": {
            "lastMigration": null,
            "version": 0.643
        },
        "source": {
            "value": ""
        },
        "traits": {
            "custom": "",
            "rarity": {
                "value": "uncommon"
            },
            "value": [
                "alchemist"
            ]
        }
    },
    "effects": [],
    "flags": {},
    "img": "systems/pf2e/icons/default-icons/feats.webp",
    "name": "Plum Deluge",
    "type": "feat"
}
