{
    "_id": "LLrGafdJij7qiWZi",
    "data": {
        "actionCategory": {
            "value": ""
        },
        "actionType": {
            "value": "passive"
        },
        "actions": {
            "value": ""
        },
        "description": {
            "chat": "",
            "unidentified": "",
            "value": "<p>You have learned to manipulate reflections of magic, similar to the resonant reflections. You reclaim the magic of an ongoing spell, using it reprepare a spell with a duration.</p>\n<p>You Dismiss a Spell of 4th level or lower that you cast today from a spell slot with at least half its duration remaining, even if that spell can't normally be Dismissed.</p>\n<p>You can then spend 10 minutes to reprepare the spell in that spell slot, as @Compendium[pf2e.feats-srd.Reprepare Spell]{Reprepare Spell}.</p>"
        },
        "featType": {
            "value": "class"
        },
        "level": {
            "value": 20
        },
        "location": "",
        "prerequisites": {
            "value": [
                {
                    "value": "Reprepare Spell"
                }
            ]
        },
        "rules": [],
        "schema": {
            "lastMigration": null,
            "version": 0.643
        },
        "source": {
            "value": ""
        },
        "traits": {
            "custom": "",
            "rarity": {
                "value": "uncommon"
            },
            "selected": {
                "wizard": "Wizard"
            },
            "value": [
                "wizard"
            ]
        }
    },
    "effects": [],
    "flags": {},
    "img": "systems/pf2e/icons/features/feats/feats.webp",
    "name": "Reclaim Spell",
    "type": "feat"
}
