{
    "_id": "UuPZ7drPBnSmI8Eo",
    "data": {
        "actionCategory": {
            "value": ""
        },
        "actionType": {
            "value": "passive"
        },
        "actions": {
            "value": ""
        },
        "description": {
            "chat": "",
            "unidentified": "",
            "value": "<p><strong>Access</strong> You are from Mediogalti Island.</p>\n<hr />\n<p>You have learned how to stalk your foes and slay them with a sawtooth sabre. You become trained in Stealth and Assassin Lore; if you were already trained, you become an expert instead. Whenever your proficiency in any weapon increases to expert or beyond, you also gain that new proficiency with @Compendium[pf2e.equipment-srd.Sawtooth Saber]{Sawtooth Saber}.</p>\n<hr />\n<p><strong>Special</strong> You cannot select another dedication feat until you have gained two other feats from the Red Mantis assassin archetype.</p>"
        },
        "featType": {
            "value": "archetype"
        },
        "level": {
            "value": 2
        },
        "prerequisites": {
            "value": [
                {
                    "value": "trained in sawtooth sabres"
                },
                {
                    "value": "deity is Achaekek"
                },
                {
                    "value": "lawful evil alignment"
                },
                {
                    "value": "member of the Red Mantis assassins"
                }
            ]
        },
        "rules": [],
        "schema": {
            "lastMigration": null,
            "version": 0.643
        },
        "source": {
            "value": ""
        },
        "traits": {
            "custom": "",
            "rarity": {
                "value": "uncommon"
            },
            "value": [
                "archetype",
                "dedication"
            ]
        }
    },
    "effects": [],
    "flags": {},
    "img": "systems/pf2e/icons/features/feats/feats.webp",
    "name": "Red Mantis Assassin Dedication",
    "type": "feat"
}
