{
    "_id": "HB0jvWCdim1p91q1",
    "data": {
        "actionCategory": {
            "value": ""
        },
        "actionType": {
            "value": "passive"
        },
        "actions": {
            "value": ""
        },
        "description": {
            "chat": "",
            "unidentified": "",
            "value": "<p>You have a vague connection to the Ethereal Plane that enables you to notice spirits. While you're exploring but not @Compendium[pf2e.actionspf2e.Search]{Searching}, the GM rolls a secret check for you to find haunts that usually require Searching, as well as spirits, creatures on the Ethereal Plane, and beings made entirely of spiritual essence such as celestials, fiends, and monitors.</p>\n<p>You can also potentially notice ethereal creatures and spirits inside solid objects, provided they are within 30 feet of you. This applies while Searching, while @Compendium[pf2e.actionspf2e.Seek]{Seeking}, and on the automatic secret check you gain while exploring even if you aren't Searching. You can still notice spirits only on a successful check, and you can't see them if they're more than 5 feet inside an object.</p>\n<p>When you notice a creature with your Spiritual Sense, you also learn its location, making it @Compendium[pf2e.conditionitems.Hidden]{Hidden} to you if it had been @Compendium[pf2e.conditionitems.Undetected]{Undetected}.</p>"
        },
        "featType": {
            "value": "class"
        },
        "level": {
            "value": 6
        },
        "prerequisites": {
            "value": []
        },
        "rules": [],
        "schema": {
            "lastMigration": null,
            "version": 0.643
        },
        "source": {
            "value": ""
        },
        "traits": {
            "custom": "",
            "rarity": {
                "value": "common"
            },
            "value": [
                "divination",
                "divine",
                "oracle"
            ]
        }
    },
    "effects": [],
    "flags": {},
    "img": "systems/pf2e/icons/features/feats/feats.webp",
    "name": "Spiritual Sense",
    "type": "feat"
}
