{
    "_id": "WAx7RABHDvVVcRI8",
    "data": {
        "actionCategory": {
            "value": ""
        },
        "actionType": {
            "value": "passive"
        },
        "actions": {
            "value": ""
        },
        "description": {
            "chat": "",
            "unidentified": "",
            "value": "<p>You can prepare two spells in one slot, giving you the freedom to choose the spell when you cast it.</p>\n<p>When you prepare your spells for the day, you can choose one spell slot at least 1 level lower than the highest-level spell you can cast and prepare two spells in that slot.</p>\n<p>When you @Compendium[pf2e.actionspf2e.Cast a Spell]{Cast a Spell} from that slot, choose which spell to cast. Once you've chosen, the unused spell dissipates as though you hadn't prepared it at all-for example, it isn't available for use with @Compendium[pf2e.actionspf2e.Drain Bonded Item]{Drain Bonded Item}.</p>"
        },
        "featType": {
            "value": "class"
        },
        "level": {
            "value": 6
        },
        "prerequisites": {
            "value": []
        },
        "rules": [],
        "schema": {
            "lastMigration": null,
            "version": 0.643
        },
        "source": {
            "value": ""
        },
        "traits": {
            "custom": "",
            "rarity": {
                "value": "common"
            },
            "value": [
                "wizard"
            ]
        }
    },
    "effects": [],
    "flags": {},
    "img": "systems/pf2e/icons/features/feats/feats.webp",
    "name": "Split Slot",
    "type": "feat"
}
