{
    "_id": "AWd7uZBfba5mNXeT",
    "data": {
        "actionCategory": {
            "value": ""
        },
        "actionType": {
            "value": "passive"
        },
        "actions": {
            "value": ""
        },
        "description": {
            "value": "<p>Your hair unarmed attack deals 1d6 bludgeoning damage and gains the grapple trait.</p>"
        },
        "featType": {
            "value": "class"
        },
        "level": {
            "value": 6
        },
        "location": "",
        "prerequisites": {
            "value": [
                {
                    "value": "Living Hair"
                }
            ]
        },
        "rules": [
            {
                "diceNumber": 0,
                "key": "PF2E.RuleElement.DamageDice",
                "override": {
                    "dieSize": "d6"
                },
                "selector": "hair-damage"
            }
        ],
        "schema": {
            "lastMigration": null,
            "version": 0.643
        },
        "source": {
            "value": ""
        },
        "traits": {
            "custom": "",
            "rarity": {
                "value": "uncommon"
            },
            "value": [
                "witch"
            ]
        }
    },
    "effects": [],
    "flags": {},
    "img": "systems/pf2e/icons/default-icons/feats.webp",
    "name": "Syu Tak-nwa's Deadly Hair",
    "type": "feat"
}
