{
    "_id": "782NyomkDHyfsUn6",
    "data": {
        "description": {
            "chat": "",
            "unidentified": "",
            "value": "<p>Granted by casting @Compendium[pf2e.spells-srd.Insect Form]{Insect Form}.</p>\n<p>You envision a simple bug and transform into a Medium animal battle form. When you cast this spell, choose a form.</p>\n<p>You can decide the specific type of animal (such as such as a ladybug or scarab for beetle), but this has no effect on the form's Size or statistics. While in this form, you gain the animal trait. You can Dismiss this spell.</p>\n<p>You gain the following statistics and abilities regardless of which battle form you choose:</p>\n<ul>\n<li>AC = 18 + your level. Ignore your armor's check penalty and Speed reduction.</li>\n<li>10 temporary Hit Points.</li>\n<li>Low-light vision.</li>\n<li>One or more attacks specific to the battle form you choose, which are the only attacks you can use. You're trained with them. Your attack modifier is +13, and your damage bonus is +2. These attacks are Strength based (for the purpose of the @Compendium[pf2e.conditionitems.Enfeebled]{Enfeebled} condition). If your unarmed attack modifier is higher, you can use it instead.</li>\n<li>Athletics modifier of +13, unless your own is higher.</li>\n</ul>\n<p>You also gain specific abilities based on the form you choose:</p>\n<ul>\n<li><strong>Spider</strong>\n<ul>\n<li>Speed 25 feet, climb Speed 25 feet; darkvision;</li>\n<li><strong>Melee</strong> <span class=\"pf2-icon\">1</span> fangs, <strong>Damage</strong> 1d6 piercing plus 1d4 persistent poison;</li>\n<li><strong>Ranged</strong> <span class=\"pf2-icon\">1</span> web (range increment 20 feet), <strong>Damage</strong> entangles the target for 1 round.</li>\n</ul>\n</li>\n</ul>\n<hr />\n<p><strong>Heightened (4th)</strong> Your battle form is Large, and your attacks have 10-foot reach. You must have enough space to expand into or the spell is lost. You instead gain 15 temporary HP, attack modifier +16, damage bonus +6, and Athletics +16.</p>\n<p><strong>Heightened (5th)</strong> Your battle form is Huge, and your attacks have 15-foot reach. You must have enough space to expand into or the spell is lost. You instead gain 20 temporary HP, attack modifier +18, damage bonus +2 and double damage dice (including @Compendium[pf2e.conditionitems.Persistent Damage]{Persistent Damage}), and Athletics +20.</p>\n<hr />\n<p><em>Note: To heighten this effect, import it into your Item Directory and edit the level before adding it to the target</em></p>"
        },
        "duration": {
            "expiry": "turn-start",
            "sustained": false,
            "unit": "minutes",
            "value": 1
        },
        "level": {
            "value": 3
        },
        "rules": [
            {
                "key": "PF2E.RuleElement.FixedProficiency",
                "label": "Insect Form",
                "roll-options": [
                    "ac",
                    "all"
                ],
                "selector": "ac",
                "type": "polymorph",
                "value": {
                    "brackets": [
                        {
                            "start": 3,
                            "value": "18 + @details.level.value"
                        }
                    ],
                    "field": "item|data.level.value"
                }
            },
            {
                "key": "PF2E.RuleElement.TempHP",
                "label": "Insect Form",
                "value": {
                    "brackets": [
                        {
                            "end": 3,
                            "start": 3,
                            "value": 10
                        },
                        {
                            "end": 4,
                            "start": 4,
                            "value": 15
                        },
                        {
                            "start": 5,
                            "value": 20
                        }
                    ],
                    "field": "item|data.level.value"
                }
            },
            {
                "key": "PF2E.RuleElement.Sense",
                "label": "PF2E.SensesLowLightVision",
                "selector": "lowLightVision"
            },
            {
                "ability": "str",
                "key": "PF2E.RuleElement.FixedProficiency",
                "label": "Insect Form",
                "selector": "attack",
                "value": {
                    "brackets": [
                        {
                            "end": 3,
                            "start": 3,
                            "value": 13
                        },
                        {
                            "end": 4,
                            "start": 4,
                            "value": 16
                        },
                        {
                            "start": 5,
                            "value": 18
                        }
                    ],
                    "field": "item|data.level.value"
                }
            },
            {
                "ability": "str",
                "key": "PF2E.RuleElement.FixedProficiency",
                "label": "Insect Form",
                "roll-options": [
                    "all"
                ],
                "selector": "damage",
                "value": {
                    "brackets": [
                        {
                            "end": 3,
                            "start": 3,
                            "value": 2
                        },
                        {
                            "end": 4,
                            "start": 4,
                            "value": 6
                        },
                        {
                            "start": 5,
                            "value": 2
                        }
                    ],
                    "field": "item|data.level.value"
                }
            },
            {
                "key": "PF2E.RuleElement.FixedProficiency",
                "label": "Insect Form",
                "roll-options": [
                    "all"
                ],
                "selector": "athletics",
                "value": {
                    "brackets": [
                        {
                            "end": 3,
                            "start": 3,
                            "value": 13
                        },
                        {
                            "end": 4,
                            "start": 4,
                            "value": 16
                        },
                        {
                            "start": 5,
                            "value": 20
                        }
                    ],
                    "field": "item|data.level.value"
                }
            },
            {
                "key": "PF2E.RuleElement.TokenSize",
                "value": {
                    "brackets": [
                        {
                            "end": 3,
                            "start": 1,
                            "value": 1
                        },
                        {
                            "end": 4,
                            "start": 4,
                            "value": 2
                        },
                        {
                            "start": 5,
                            "value": 3
                        }
                    ],
                    "field": "item|data.level.value"
                }
            },
            {
                "key": "PF2E.RuleElement.Sense",
                "label": "PF2E.SensesDarkvision",
                "selector": "darkvision"
            },
            {
                "key": "PF2E.RuleElement.BaseSpeed",
                "selector": "land-speed",
                "value": 25
            },
            {
                "key": "PF2E.RuleElement.BaseSpeed",
                "selector": "climb",
                "value": 25
            },
            {
                "category": "unarmed",
                "damage": {
                    "base": {
                        "damageType": "piercing",
                        "dice": 1,
                        "die": "d6"
                    }
                },
                "group": "brawling",
                "key": "PF2E.RuleElement.Strike",
                "label": "Spider Fangs",
                "range": "melee",
                "traits": [
                    "melee"
                ]
            },
            {
                "key": "PF2E.RuleElement.Note",
                "predicate": {
                    "all": [
                        "melee"
                    ]
                },
                "selector": "damage",
                "text": "<p class='compact-text'><strong>Add 1d4 persistent poison damage (2d4 at spell level 5)</p>"
            },
            {
                "category": "ranged",
                "damage": {
                    "base": {
                        "damageType": "slashing",
                        "dice": 1,
                        "die": "d1"
                    }
                },
                "group": "brawling",
                "key": "PF2E.RuleElement.Strike",
                "label": "Spider Web",
                "range": "range-20",
                "traits": [
                    "range-20"
                ]
            },
            {
                "key": "PF2E.RuleElement.Note",
                "predicate": {
                    "all": [
                        "range-20"
                    ]
                },
                "selector": "damage",
                "text": "<p class='compact-text'><strong>This attack deals no damage. It entangles the target for 1 round.</p>"
            },
            {
                "critical": false,
                "key": "PF2E.RuleElement.DamageDice",
                "label": "Insect Form",
                "predicate": {
                    "all": [
                        "melee"
                    ]
                },
                "selector": "damage",
                "value": {
                    "brackets": [
                        {
                            "start": 5,
                            "value": {
                                "diceNumber": 1
                            }
                        }
                    ],
                    "field": "item|data.level.value"
                }
            },
            {
                "key": "PF2E.RuleElement.SetProperty",
                "on": {
                    "added": true,
                    "removed": false
                },
                "property": "flags.pf2e.rollOptions.all.polymorph",
                "retain": true
            }
        ],
        "schema": {
            "lastMigration": null,
            "version": 0.643
        },
        "source": {
            "value": ""
        },
        "start": {
            "initiative": null,
            "value": 0
        },
        "target": null,
        "tokenIcon": {
            "show": true
        },
        "traits": {
            "custom": "",
            "rarity": {
                "value": "common"
            },
            "value": []
        }
    },
    "effects": [],
    "flags": {},
    "img": "systems/pf2e/icons/spells/insect-form.webp",
    "name": "Spell Effect: Insect Form (Spider)",
    "type": "effect"
}
