{
    "_id": "tYOMBiH3HbViNWwn",
    "data": {
        "actionCategory": {
            "value": ""
        },
        "actionType": {
            "value": "passive"
        },
        "actions": {
            "value": ""
        },
        "description": {
            "chat": "",
            "unidentified": "",
            "value": "<p>Through lineage, magic, or wishes made real, the blood of a noble genie flows through your veins.</p>\n<p><strong>Spell List</strong> arcane</p>\n<p><strong>Bloodline Skills</strong> Arcana, Deception</p>\n<p><strong>Granted Spells</strong> cantrip: @Compendium[pf2e.spells-srd.Detect Magic]{Detect Magic}; 1st: @Compendium[pf2e.spells-srd.Illusory Disguise]{Illusory Disguise}; 2nd: variable (see Genie Type below); 3rd: @Compendium[pf2e.spells-srd.Enthrall]{Enthrall}; 4th: @Compendium[pf2e.spells-srd.Creation]{Creation}; 5th: variable (see Genie Type below); 6th: @Compendium[pf2e.spells-srd.True Seeing]{True Seeing}; 7th: @Compendium[pf2e.spells-srd.Energy Aegis]{Energy Aegis}; 8th: variable (see Genie Type below); 9th: @Compendium[pf2e.spells-srd.Resplendent Mansion]{Resplendent Mansion}</p>\n<p><strong>Bloodline Spells</strong> initial: @Compendium[pf2e.spells-srd.Genie's Veil]{Genie's Veil}; advanced: @Compendium[pf2e.spells-srd.Heart's Desire]{Heart's Desire}; greater: @Compendium[pf2e.spells-srd.Wish-Twisted Form]{Wish-Twisted Form}</p>\n<p><strong>Blood Magic</strong> Your spellcasting warps reality and distracts your foes. Either you gain a +1 status bonus to Deception checks for 1 round, or a target takes a -1 status penalty to Perception for 1 round.</p>\n<p>@Compendium[pf2e.feature-effects.Effect: Genie Blood Magic (Self)]{Effect: Genie Blood Magic (Self)}, @Compendium[pf2e.feature-effects.Effect: Genie Blood Magic (Target)]{Effect: Genie Blood Magic (Target)}</p>\n<p><strong>Genie Type</strong></p>\n<p>At 1st level, choose the type of genie that influenced your bloodline: janni, djinni, efreeti, marid, or shaitan. You can't change your genie type later. This determines what granted spells you receive at 2nd, 5th, and 8th level.</p>\n<ul>\n<li><strong>Janni</strong> 2nd: @Compendium[pf2e.spells-srd.Create Food]{Create Food}; 5th: @Compendium[pf2e.spells-srd.Banishment]{Banishment}; 8th: @Compendium[pf2e.spells-srd.Scintillating Pattern]{Scintillating Pattern}</li>\n<li><strong>Djinni</strong> 2nd: @Compendium[pf2e.spells-srd.Invisibility]{Invisibility}; 5th: @Compendium[pf2e.spells-srd.Illusory Scene]{Illusory Scene}; 8th: @Compendium[pf2e.spells-srd.Punishing Winds]{Punishing Winds}</li>\n<li><strong>Efreeti</strong> 2nd: @Compendium[pf2e.spells-srd.Enlarge]{Enlarge}; 5th: @Compendium[pf2e.spells-srd.Elemental Form]{Elemental Form} (fire only); 8th: @Compendium[pf2e.spells-srd.Maze]{Maze}</li>\n<li><strong>Marid</strong> 2nd: @Compendium[pf2e.spells-srd.Water Walk]{Water Walk}; 5th: @Compendium[pf2e.spells-srd.Control Water]{Control Water}; 8th: @Compendium[pf2e.spells-srd.Horrid Wilting]{Horrid Wilting}</li>\n<li><strong>Shaitan</strong> 2nd: @Compendium[pf2e.spells-srd.Glitterdust]{Glitterdust}; 5th: @Compendium[pf2e.spells-srd.Wall of Stone]{Wall of Stone}; 8th: @Compendium[pf2e.spells-srd.Earthquake]{Earthquake}</li>\n</ul>"
        },
        "featType": {
            "value": "classfeature"
        },
        "level": {
            "value": 1
        },
        "location": "",
        "prerequisites": {
            "value": []
        },
        "rules": [],
        "schema": {
            "lastMigration": null,
            "version": 0.643
        },
        "source": {
            "value": ""
        },
        "traits": {
            "custom": "",
            "rarity": {
                "value": "common"
            },
            "value": [
                "sorcerer"
            ]
        }
    },
    "effects": [
        {
            "_id": "2jbuEDRDd2HQiT8X",
            "changes": [
                {
                    "key": "data.skills.arc.rank",
                    "mode": 4,
                    "value": "1"
                },
                {
                    "key": "data.skills.dec.rank",
                    "mode": 4,
                    "value": "1"
                }
            ],
            "disabled": false,
            "duration": {
                "startTime": null
            },
            "flags": {},
            "icon": "systems/pf2e/icons/features/classes/genie.webp",
            "label": "Bloodline: Genie",
            "origin": "",
            "tint": null,
            "transfer": true
        }
    ],
    "flags": {},
    "img": "systems/pf2e/icons/features/classes/genie.webp",
    "name": "Bloodline: Genie",
    "type": "feat"
}
