{
    "_id": "O0uXZRWMNliDbkxU",
    "data": {
        "actionCategory": {
            "value": ""
        },
        "actionType": {
            "value": "passive"
        },
        "actions": {
            "value": ""
        },
        "description": {
            "chat": "",
            "unidentified": "",
            "value": "<p>A hag long ago cursed your family, or you are a descendant of a hag or changeling, and their accursed corruption infests your blood and soul.</p>\n<p><strong>Spell List</strong> occult</p>\n<p><strong>Bloodline Skills</strong> Deception, Occultism</p>\n<p><strong>Granted Spells</strong> cantrip @Compendium[pf2e.spells-srd.Daze]{Daze}, 1st: @Compendium[pf2e.spells-srd.Illusory Disguise]{Illusory Disguise}, 2nd: @Compendium[pf2e.spells-srd.Touch of Idiocy]{Touch of Idiocy}, 3rd: @Compendium[pf2e.spells-srd.Blindness]{Blindness}, 4th: @Compendium[pf2e.spells-srd.Outcast's Curse]{Outcast's Curse}, 5th: @Compendium[pf2e.spells-srd.Mariner's Curse]{Mariner's Curse}, 6th: @Compendium[pf2e.spells-srd.Baleful Polymorph]{Baleful Polymorph}, 7th: @Compendium[pf2e.spells-srd.Warp Mind]{Warp Mind}, 8th: @Compendium[pf2e.spells-srd.Spiritual Epidemic]{Spiritual Epidemic}, 9th: @Compendium[pf2e.spells-srd.Nature's Enmity]{Nature's Enmity}</p>\n<p><strong>Bloodline Spells</strong> initial: @Compendium[pf2e.spells-srd.Jealous Hex]{Jealous Hex}, advanced: @Compendium[pf2e.spells-srd.Horrific Visage]{Horrific Visage}, greater: @Compendium[pf2e.spells-srd.You're Mine]{You're Mine}</p>\n<p><strong>Blood Magic</strong> Spiteful curses punish your foes. You deal 2 mental damage per spell level (basic Will save) to the first creature that deals damage to you before the end of your next turn.</p>\n<p>@Compendium[pf2e.feature-effects.Effect: Hag Blood Magic]{Effect: Hag Blood Magic}</p>"
        },
        "featType": {
            "value": "classfeature"
        },
        "level": {
            "value": 1
        },
        "location": "",
        "prerequisites": {
            "value": []
        },
        "rules": [],
        "schema": {
            "lastMigration": null,
            "version": 0.643
        },
        "source": {
            "value": ""
        },
        "traits": {
            "custom": "",
            "rarity": {
                "value": "common"
            },
            "value": [
                "sorcerer"
            ]
        }
    },
    "effects": [
        {
            "_id": "9mvhmPtJvDjj0ih5",
            "changes": [
                {
                    "key": "data.skills.dec.rank",
                    "mode": 4,
                    "value": "1"
                },
                {
                    "key": "data.skills.occ.rank",
                    "mode": 4,
                    "value": "1"
                }
            ],
            "disabled": false,
            "duration": {
                "startTime": null
            },
            "flags": {},
            "icon": "systems/pf2e/icons/features/classes/hag.webp",
            "label": "Bloodline: Hag",
            "origin": "",
            "tint": null,
            "transfer": true
        }
    ],
    "flags": {},
    "img": "systems/pf2e/icons/features/classes/hag.webp",
    "name": "Bloodline: Hag",
    "type": "feat"
}
