{
    "_id": "gblTFUOgolqFS9v4",
    "data": {
        "actionCategory": {
            "value": ""
        },
        "actionType": {
            "value": "passive"
        },
        "actions": {
            "value": ""
        },
        "description": {
            "chat": "",
            "unidentified": "",
            "value": "<p>Through your deity's blessing, you gain additional spells that channel either the life force called positive energy or its counterforce, negative energy. When you prepare your spells each day, you can prepare additional @Compendium[pf2e.spells-srd.Heal]{Heal} or @Compendium[pf2e.spells-srd.Harm]{Harm} spells, depending on your deity. Once you choose, you can't change your choice short of an ethical shift or divine intervention.</p>\n<p><strong>Healing Font</strong>: You gain additional spell slots each day at your highest level of cleric spell slots. You can prepare only<em>heal</em>spells in these slots, and the number of slots is equal to 1 plus your Charisma modifier.</p>\n<p><strong>Harmful Font</strong>: You gain additional spell slots each day at your highest level of cleric spell slots. You can prepare only<em>harm</em>spells in these slots, and the number of slots is equal to 1 plus your Charisma modifier.</p>"
        },
        "featType": {
            "value": "classfeature"
        },
        "level": {
            "value": 1
        },
        "location": "",
        "prerequisites": {
            "value": []
        },
        "rules": [],
        "schema": {
            "lastMigration": null,
            "version": 0.643
        },
        "source": {
            "value": ""
        },
        "traits": {
            "custom": "",
            "rarity": {
                "value": "common"
            },
            "value": [
                "cleric"
            ]
        }
    },
    "effects": [],
    "flags": {},
    "img": "systems/pf2e/icons/features/classes/divine-font.webp",
    "name": "Divine Font",
    "type": "feat"
}
