{
    "_id": "UTRDN1TAieBMjwP1",
    "data": {
        "actionCategory": {
            "value": ""
        },
        "actionType": {
            "value": "passive"
        },
        "actions": {
            "value": ""
        },
        "description": {
            "value": "<p><strong>Favored Weapon</strong>: @Compendium[pf2e.equipment-srd.Morningstar]{Morningstar}</p>\n<p>The Order of the Godclaw’s Hellknights see their cause as a holy mandate from the Godclaw. They seek to punish criminals with a zeal rarely matched by others who enforce the law.</p>\n<hr />\n<p><strong>Lesser Benefit</strong>: @Compendium[pf2e.feats-srd.Dedication to the Five]{Dedication to the Five}</p>\n<p><strong>Greater Benefit</strong>: @Compendium[pf2e.feats-srd.Blessings of the Five]{Blessings of the Five}</p>"
        },
        "featType": {
            "value": "classfeature"
        },
        "level": {
            "value": 0
        },
        "location": "",
        "prerequisites": {
            "value": []
        },
        "rules": [],
        "schema": {
            "lastMigration": null,
            "version": 0.643
        },
        "source": {
            "value": ""
        },
        "traits": {
            "custom": "",
            "rarity": {
                "value": "common"
            },
            "value": []
        }
    },
    "effects": [],
    "flags": {},
    "img": "systems/pf2e/icons/default-icons/feat.svg",
    "name": "Order of the Godclaw",
    "type": "feat"
}
