{
    "_id": "GBsC2cARoFiqMi9V",
    "data": {
        "actionCategory": {
            "value": ""
        },
        "actionType": {
            "value": "passive"
        },
        "actions": {
            "value": ""
        },
        "description": {
            "chat": "",
            "unidentified": "",
            "value": "<p>Through a combination of magic and training, you've learned how to wield wizard weapons more effectively. You gain expert proficiency in the club, crossbow, dagger, heavy crossbow, staff, and unarmed attacks.</p>"
        },
        "featType": {
            "value": "classfeature"
        },
        "level": {
            "value": 11
        },
        "location": "",
        "prerequisites": {
            "value": []
        },
        "rules": [],
        "schema": {
            "lastMigration": null,
            "version": 0.643
        },
        "source": {
            "value": ""
        },
        "traits": {
            "custom": "",
            "rarity": {
                "value": "common"
            },
            "value": [
                "wizard"
            ]
        }
    },
    "effects": [
        {
            "_id": "zQhEBZDnk1lMSoPT",
            "changes": [
                {
                    "key": "data.martial.weapon-base-club.rank",
                    "mode": 4,
                    "value": "2"
                },
                {
                    "key": "data.martial.weapon-base-crossbow.rank",
                    "mode": 4,
                    "value": "2"
                },
                {
                    "key": "data.martial.weapon-base-dagger.rank",
                    "mode": 4,
                    "value": "2"
                },
                {
                    "key": "data.martial.weapon-base-heavy-crossbow.rank",
                    "mode": 4,
                    "value": "2"
                },
                {
                    "key": "data.martial.weapon-base-staff.rank",
                    "mode": 4,
                    "value": "2"
                },
                {
                    "key": "data.martial.unarmed.rank",
                    "mode": 4,
                    "value": "2"
                }
            ],
            "disabled": false,
            "duration": {
                "startTime": null
            },
            "flags": {},
            "icon": "systems/pf2e/icons/features/classes/wizard-weapon-expertise.webp",
            "label": "Wizard Weapon Expertise",
            "origin": "",
            "tint": null,
            "transfer": true
        }
    ],
    "flags": {},
    "img": "systems/pf2e/icons/features/classes/wizard-weapon-expertise.webp",
    "name": "Wizard Weapon Expertise",
    "type": "feat"
}
