{
    "_id": "HfXGhXc9D120gvl5",
    "data": {
        "description": {
            "value": "<p>Granted by @Compendium[pf2e.feats-srd.Celestial Wings]{Celestial Wings}</p>\n<p>You gain a fly Speed equal to your Speed while you've manifested your wings.</p>"
        },
        "duration": {
            "expiry": "turn-start",
            "sustained": false,
            "unit": "minutes",
            "value": 10
        },
        "level": {
            "value": 9
        },
        "rules": [
            {
                "key": "PF2E.RuleElement.BaseSpeed",
                "selector": "fly",
                "value": "@attributes.speed.total"
            }
        ],
        "schema": {
            "lastMigration": null,
            "version": 0.643
        },
        "source": {
            "value": ""
        },
        "start": {
            "initiative": null,
            "value": 0
        },
        "target": null,
        "tokenIcon": {
            "show": false
        },
        "traits": {
            "custom": "",
            "rarity": {
                "value": "common"
            },
            "value": []
        }
    },
    "effects": [],
    "flags": {},
    "img": "systems/pf2e/icons/spells/angelic-wings.webp",
    "name": "Effect: Celestial Wings",
    "type": "effect"
}
