{
    "_id": "K8vvrOgW4bGakXxm",
    "data": {
        "ability": {
            "value": ""
        },
        "area": {
            "areaType": "",
            "value": ""
        },
        "areasize": {
            "value": ""
        },
        "category": {
            "value": "focus"
        },
        "components": {
            "material": false,
            "somatic": false,
            "verbal": true
        },
        "cost": {
            "value": ""
        },
        "damage": {
            "applyMod": false,
            "value": ""
        },
        "damageType": {
            "value": ""
        },
        "description": {
            "chat": "",
            "unidentified": "",
            "value": "<p>Vicious claws grow from your fingers. They are finesse unarmed attacks that deal 1d4 slashing damage and 1d6 extra damage of a type determined by the dragon in your bloodline.</p>\n<h2>Dragon Claws</h2>\n<table class=\"pf2-table\">\n<thead>\n<tr>\n<th>Dragon Type</th>\n<th>Damage Type</th>\n</tr>\n</thead>\n<tbody>\n<tr>\n<td>Copper or Black</td>\n<td>@Compendium[pf2e.spell-effects.Spell Effect: Dragon Claw (Acid)]{Acid}</td>\n</tr>\n<tr>\n<td>Blue and Bronze</td>\n<td>@Compendium[pf2e.spell-effects.Spell Effect: Dragon Claw (Electricity)]{Electricity}</td>\n</tr>\n<tr>\n<td>Brass, Gold, or Red</td>\n<td>@Compendium[pf2e.spell-effects.Spell Effect: Dragon Claw (Fire)]{Fire}</td>\n</tr>\n<tr>\n<td>Green</td>\n<td>@Compendium[pf2e.spell-effects.Spell Effect: Dragon Claw (Poison)]{Poison}</td>\n</tr>\n<tr>\n<td>Silver or White</td>\n<td>@Compendium[pf2e.spell-effects.Spell Effect: Dragon Claw (Cold)]{Cold}</td>\n</tr>\n</tbody>\n</table>\n<p>Your scales from blood magic glow with faint energy, giving you resistance 5 to the same damage type.</p>\n<hr />\n<p><strong>Heightened (5th)</strong> The extra damage increases to 2d6, and the resistance increases to 10.</p>\n<p><strong>Heightened (9th)</strong> The extra damage increases to 3d6, and the resistance increases to 15.</p>"
        },
        "duration": {
            "value": "1 minute"
        },
        "hasCounteractCheck": {
            "value": false
        },
        "level": {
            "value": 1
        },
        "location": {
            "value": ""
        },
        "materials": {
            "value": ""
        },
        "prepared": {
            "value": ""
        },
        "primarycheck": {
            "value": ""
        },
        "range": {
            "value": ""
        },
        "rules": [],
        "save": {
            "basic": "",
            "value": ""
        },
        "scaling": {
            "formula": "",
            "mode": "none"
        },
        "schema": {
            "lastMigration": null,
            "version": 0.643
        },
        "school": {
            "value": "transmutation"
        },
        "secondarycasters": {
            "value": ""
        },
        "secondarycheck": {
            "value": ""
        },
        "source": {
            "value": ""
        },
        "spellType": {
            "value": "utility"
        },
        "sustained": {
            "value": false
        },
        "target": {
            "value": ""
        },
        "time": {
            "value": "1"
        },
        "traditions": {
            "value": []
        },
        "traits": {
            "custom": "",
            "rarity": {
                "value": "uncommon"
            },
            "value": [
                "morph",
                "uncommon",
                "transmutation",
                "sorcerer"
            ]
        }
    },
    "effects": [],
    "flags": {},
    "img": "systems/pf2e/icons/spells/dragon-claws.webp",
    "name": "Dragon Claws",
    "type": "spell"
}
