{
    "_id": "oryfsRK27jAUnziw",
    "data": {
        "ability": {
            "value": ""
        },
        "area": {
            "value": ""
        },
        "areasize": {
            "value": ""
        },
        "category": {
            "value": "spell"
        },
        "components": {
            "material": false,
            "somatic": true,
            "verbal": true
        },
        "cost": {
            "value": ""
        },
        "damage": {
            "applyMod": false,
            "value": "1d4"
        },
        "damageType": {
            "value": "piercing"
        },
        "description": {
            "chat": "",
            "unidentified": "",
            "value": "<p>You reproduce an imp's evil, poisonous sting, stabbing at an enemy and possibly affecting them with the devil's benumbing venom. You deal [[/r 1d4 #piercing]] piercing damage to the touched creature and afflict the creature with imp venom. If the target takes piercing damage, they also take [[/r 1d6 #evil]] evil damage and must attempt a Fortitude save.</p>\n<hr />\n<p><strong>Critical Success</strong> The target is unaffected.</p>\n<p><strong>Success</strong> The target takes [[/r 1d6 #poison]] poison damage.</p>\n<p><strong>Failure</strong> The target is afflicted with Imp Venom at stage 1.</p>\n<p><strong>Critical Failure</strong> The target is afflicted with imp venom at stage 2.</p>\n<hr />\n<p><strong>Imp Venom</strong> (poison) <strong>Level 3</strong></p>\n<p><strong>Maximum Duration</strong> 6 rounds</p>\n<p><strong>Stage 1</strong> [[/r 1d6 #poison]] poison and @Compendium[pf2e.conditionitems.Clumsy]{Clumsy 1}</p>\n<p><strong>Stage 2</strong> [[/r 1d6 #poison]] poison, @Compendium[pf2e.conditionitems.Clumsy]{Clumsy 1}, and @Compendium[pf2e.conditionitems.Slowed]{Slowed 1} (1 round).</p>"
        },
        "duration": {
            "value": ""
        },
        "hasCounteractCheck": {
            "value": false
        },
        "level": {
            "value": 2
        },
        "location": {
            "value": "Z9TGJ4zsSKnZVV9u"
        },
        "materials": {
            "value": ""
        },
        "prepared": {
            "value": ""
        },
        "primarycheck": {
            "value": ""
        },
        "range": {
            "value": "touch"
        },
        "rules": [],
        "save": {
            "basic": "",
            "value": "fortitude"
        },
        "scaling": {
            "formula": "",
            "mode": "none"
        },
        "schema": {
            "lastMigration": null,
            "version": 0.643
        },
        "school": {
            "value": "necromancy"
        },
        "secondarycasters": {
            "value": ""
        },
        "secondarycheck": {
            "value": ""
        },
        "source": {
            "value": ""
        },
        "spellType": {
            "value": "save"
        },
        "sustained": {
            "value": false
        },
        "target": {
            "value": "1 creature"
        },
        "time": {
            "value": "2"
        },
        "traditions": {
            "custom": "",
            "value": [
                "divine",
                "occult"
            ]
        },
        "traits": {
            "custom": "",
            "rarity": {
                "value": "uncommon"
            },
            "selected": [],
            "value": [
                "evil",
                "necromancy",
                "poison"
            ]
        }
    },
    "effects": [],
    "flags": {},
    "img": "systems/pf2e/icons/spells/imp-sting.webp",
    "name": "Imp Sting",
    "type": "spell"
}
