{
    "_id": "In2A7GCyxxaqZdPI",
    "data": {
        "ability": {
            "value": ""
        },
        "area": {
            "areaType": "",
            "value": ""
        },
        "areasize": {
            "value": ""
        },
        "category": {
            "value": "focus"
        },
        "components": {
            "material": false,
            "somatic": true,
            "verbal": true
        },
        "cost": {
            "value": ""
        },
        "damage": {
            "applyMod": false,
            "value": ""
        },
        "damageType": {
            "value": ""
        },
        "description": {
            "chat": "",
            "unidentified": "",
            "value": "<p>You summon a bridge of radiant, shimmering moonlight.</p>\n<p>The 10-foot-wide span must start at the ground on a point within range, and it extends as a horizontal plane, either in a straight line or at any angle up to 45 degrees upward or downward, for up to 120 feet.</p>\n<p>This bridge has AC 10, Hardness 30, and 60 Hit Points, and it's immune to critical hits and precision damage. You and your allies can cross the bridge normally, but other creatures simply pass through it if they try to do so. The bridge blocks physical, ethereal, and incorporeal attacks from crossing, whether from above or below.</p>\n<p>You can @Compendium[pf2e.actionspf2e.Dismiss]{Dismiss} the spell.</p>\n<hr />\n<p><strong>Heightened (+1)</strong> The length of the bridge increases by 20 feet, and its Hit Points increase by 20.</p>"
        },
        "duration": {
            "value": "10 minutes"
        },
        "hasCounteractCheck": {
            "value": false
        },
        "level": {
            "value": 6
        },
        "location": {
            "value": ""
        },
        "materials": {
            "value": ""
        },
        "prepared": {
            "value": ""
        },
        "primarycheck": {
            "value": ""
        },
        "range": {
            "value": "30 feet"
        },
        "rules": [],
        "save": {
            "basic": "",
            "value": ""
        },
        "scaling": {
            "formula": "",
            "mode": "none"
        },
        "schema": {
            "lastMigration": null,
            "version": 0.643
        },
        "school": {
            "value": "conjuration"
        },
        "secondarycasters": {
            "value": ""
        },
        "secondarycheck": {
            "value": ""
        },
        "source": {
            "value": ""
        },
        "spellType": {
            "value": "utility"
        },
        "sustained": {
            "value": false
        },
        "target": {
            "value": ""
        },
        "time": {
            "value": "2"
        },
        "traditions": {
            "custom": "",
            "value": []
        },
        "traits": {
            "custom": "",
            "rarity": {
                "value": "uncommon"
            },
            "value": [
                "conjuration",
                "light",
                "oracle"
            ]
        }
    },
    "effects": [],
    "flags": {},
    "img": "systems/pf2e/icons/spells/moonlight-bridge.webp",
    "name": "Moonlight Bridge",
    "type": "spell"
}
