{
    "_id": "HGmBY8KjgLV97nUp",
    "data": {
        "ability": {
            "value": ""
        },
        "area": {
            "areaType": "burst",
            "value": 10
        },
        "areasize": {
            "value": "10-foot burst"
        },
        "category": {
            "value": "spell"
        },
        "components": {
            "material": false,
            "somatic": true,
            "verbal": true
        },
        "cost": {
            "value": ""
        },
        "damage": {
            "applyMod": false,
            "value": ""
        },
        "damageType": {
            "value": ""
        },
        "description": {
            "chat": "",
            "unidentified": "",
            "value": "<p>You blast the area with grit that scours away soil and gets into creatures' eyes. For the duration of the spell, any plant-based difficult terrain smaller than a tree becomes loose, allowing each 5-foot square of it to be cleared with a single Interact action. In addition, <em>scouring sand</em> attempts to counteract @Compendium[pf2e.spells-srd.Entangle]{Entangle} and other effects that create or manipulate plant-based terrain in its area. Successfully counteracting an effect removes only the portion of its area that overlaps with <em>scouring sand's</em> area. After one such attempt, the effect is temporarily immune to <em>scouring sand's</em> counteract for 24 hours. Each creature in the area when you Cast this Spell or that ends its turn in the area must attempt a Reflex save.</p>\n<hr />\n<p><span><strong>Success</strong> The creature is unaffected.</span></p>\n<p><span><strong>Failure</strong> The creature is @Compendium[pf2e.conditionitems.Dazzled]{Dazzled} for 1 minute or until it uses an Interact action to get the sand out of its eyes.</span></p>\n<p><span><strong>Critical Failure</strong> As failure, but the creature is also @Compendium[pf2e.conditionitems.Blinded]{Blinded} for its next action.</span></p>\n<hr />\n<p><strong>Heightened (3rd)</strong> Once per round when you Sustain the Spell, you can move the center of the burst to a spot within range.</p>\n<p><strong>Heightened (6th)</strong> As the 3rd-level version, except the range is 120 feet and the area is a 20-foot burst.</p>"
        },
        "duration": {
            "value": "sustained for up to 1 minute"
        },
        "hasCounteractCheck": {
            "value": true
        },
        "level": {
            "value": 1
        },
        "location": {
            "value": ""
        },
        "materials": {
            "value": ""
        },
        "prepared": {
            "value": ""
        },
        "primarycheck": {
            "value": ""
        },
        "range": {
            "value": "60 feet"
        },
        "rules": [],
        "save": {
            "basic": "",
            "value": "reflex"
        },
        "scaling": {
            "formula": "",
            "mode": "none"
        },
        "schema": {
            "lastMigration": null,
            "version": 0.643
        },
        "school": {
            "value": "evocation"
        },
        "secondarycasters": {
            "value": ""
        },
        "secondarycheck": {
            "value": ""
        },
        "source": {
            "value": ""
        },
        "spellType": {
            "value": "save"
        },
        "sustained": {
            "value": false
        },
        "target": {
            "value": ""
        },
        "time": {
            "value": "2"
        },
        "traditions": {
            "custom": "",
            "value": [
                "arcane",
                "primal"
            ]
        },
        "traits": {
            "custom": "",
            "rarity": {
                "value": "uncommon"
            },
            "value": [
                "earth",
                "evocation"
            ]
        }
    },
    "effects": [],
    "flags": {},
    "img": "systems/pf2e/icons/spells/scouring-sand.webp",
    "name": "Scouring Sand",
    "type": "spell"
}
