{
    "_id": "EOWh6VVcSjB3WPjX",
    "data": {
        "ability": {
            "value": ""
        },
        "area": {
            "value": ""
        },
        "areasize": {
            "value": ""
        },
        "category": {
            "value": "focus"
        },
        "components": {
            "material": false,
            "somatic": true,
            "verbal": true
        },
        "cost": {
            "value": ""
        },
        "damage": {
            "applyMod": true,
            "value": "2d8"
        },
        "damageType": {
            "value": ""
        },
        "description": {
            "chat": "",
            "unidentified": "",
            "value": "<p>You create a shadowy illusion of a creature or a stationary object, but the illusion can exist only in an area of dim light or darkness. The spell ends if the illusion is ever out of an area of dim light or darkness. If the illusion is an object, it must fit within a 20-foot burst, and the creature can be of any size up to Gargantuan, filling a 20-foot-by-20-foot space.</p>\n<p>The object or creature appears to animate naturally; it even generates the appropriate sounds and smells, and feels believable to the touch, though its coloring is always muted.</p>\n<p>If the illusion is a creature, shadow illusion has the effects of an @Compendium[pf2e.spells-srd.Illusory Creature]{Illusory Creature} spell of the same level, except it deals [[/r 2d8]] damage plus your spellcasting ability modifier, instead of the amount listed in illusory creature.</p>\n<hr />\n<p><strong>Heightened (+2)</strong> The area that an illusory object can fit in increases by 10 feet.</p>\n<p>The damage of the illusory creature's @Compendium[pf2e.actionspf2e.Strike]{Strike} increases by [[/r 1d8]].</p>"
        },
        "duration": {
            "value": "Sustained"
        },
        "hasCounteractCheck": {
            "value": false
        },
        "level": {
            "value": 6
        },
        "location": {
            "value": "gj8uSdGt5Fbk1fGz"
        },
        "materials": {
            "value": ""
        },
        "prepared": {
            "value": ""
        },
        "primarycheck": {
            "value": ""
        },
        "range": {
            "value": "500 feet"
        },
        "rules": [],
        "save": {
            "basic": "",
            "value": ""
        },
        "scaling": {
            "formula": "1d8",
            "mode": "level2"
        },
        "schema": {
            "lastMigration": null,
            "version": 0.643
        },
        "school": {
            "value": "illusion"
        },
        "secondarycasters": {
            "value": ""
        },
        "secondarycheck": {
            "value": ""
        },
        "source": {
            "value": ""
        },
        "spellType": {
            "value": "attack"
        },
        "sustained": {
            "value": false
        },
        "target": {
            "value": ""
        },
        "time": {
            "value": "2"
        },
        "traditions": {
            "value": []
        },
        "traits": {
            "custom": "",
            "rarity": {
                "value": "common"
            },
            "selected": {
                "auditory": "Auditory",
                "illusion": "Illusion",
                "shadow": "Shadow",
                "visual": "Visual"
            },
            "value": [
                "auditory",
                "illusion",
                "shadow",
                "visual"
            ]
        }
    },
    "effects": [],
    "flags": {},
    "img": "systems/pf2e/icons/spells/shadow-illusion.webp",
    "name": "Shadow Illusion",
    "type": "spell"
}
