{
    "_id": "1oLMOmLpurfWTTff",
    "data": {
        "actionCategory": {
            "value": ""
        },
        "actionType": {
            "value": "passive"
        },
        "actions": {
            "value": ""
        },
        "description": {
            "chat": "",
            "unidentified": "",
            "value": "<p>You descend from celestials or were touched by the celestial realms, gaining an air of awe and grace, as well as features distinctive to your celestial forebears. You gain the aasimar trait, in addition to the traits from your ancestry. You also gain @Compendium[pf2e.ancestryfeatures.Low-Light Vision]{Low-Light Vision}, or you gain @Compendium[pf2e.ancestryfeatures.Darkvision]{Darkvision} if your ancestry already has low-light vision. You can choose from aasimar feats and feats from your ancestry whenever you gain an ancestry feat.</p>"
        },
        "featType": {
            "value": "heritage"
        },
        "level": {
            "value": 1
        },
        "location": "",
        "prerequisites": {
            "value": []
        },
        "rules": [
            {
                "add": [
                    "aasimar"
                ],
                "key": "PF2E.RuleElement.ActorTraits"
            }
        ],
        "schema": {
            "lastMigration": null,
            "version": 0.643
        },
        "source": {
            "value": ""
        },
        "traits": {
            "custom": "",
            "rarity": {
                "value": "uncommon"
            },
            "value": [
                "aasimar",
                "versatile heritage"
            ]
        }
    },
    "effects": [],
    "flags": {},
    "img": "systems/pf2e/icons/features/ancestry/aasimar.webp",
    "name": "Aasimar",
    "type": "feat"
}
