{
    "_id": "yL6944LrPo2HNdEJ",
    "data": {
        "actionCategory": {
            "value": ""
        },
        "actionType": {
            "value": "passive"
        },
        "actions": {
            "value": ""
        },
        "description": {
            "chat": "",
            "unidentified": "",
            "value": "<p>Dwarven heroes of old could shrug off their enemies' magic, and some of that resistance manifests in you. You gain the @Compendium[pf2e.actionspf2e.Call on Ancient Blood]{Call on Ancient Blood} reaction.</p>"
        },
        "featType": {
            "value": "heritage"
        },
        "level": {
            "value": 1
        },
        "location": "",
        "prerequisites": {
            "value": []
        },
        "rules": [],
        "schema": {
            "lastMigration": null,
            "version": 0.643
        },
        "source": {
            "value": ""
        },
        "traits": {
            "custom": "",
            "rarity": {
                "value": "common"
            },
            "selected": [],
            "value": [
                "dwarf"
            ]
        }
    },
    "effects": [],
    "flags": {},
    "img": "systems/pf2e/icons/features/ancestry/ancient-blooded-dwarf.webp",
    "name": "Ancient-Blooded Dwarf",
    "type": "feat"
}
