{
    "_id": "wHO5luJMODbDLXNi",
    "data": {
        "actionCategory": {
            "value": ""
        },
        "actionType": {
            "value": "passive"
        },
        "actions": {
            "value": ""
        },
        "description": {
            "value": "<p>Your body proves that shadow can’t exist without light. Perhaps your eyes glow brighter or your veins occasionally pulse with light. You emit dim light within 5 feet of you. You can activate or suppress this ability as an action, which has the concentrate trait. Additionally, you can force fragments of your shadow to glow and cast @Compendium[pf2e.spells-srd.Dancing Lights]{Dancing Lights} and @Compendium[pf2e.spells-srd.Light]{Light} as occult innate cantrips. Cantrips are heightened to a spell level equal to half your level rounded up.</p>"
        },
        "featType": {
            "value": "heritage"
        },
        "level": {
            "value": 1
        },
        "location": "",
        "prerequisites": {
            "value": []
        },
        "rules": [],
        "schema": {
            "lastMigration": null,
            "version": 0.643
        },
        "source": {
            "value": ""
        },
        "traits": {
            "custom": "",
            "rarity": {
                "value": "common"
            },
            "value": [
                "fetchling"
            ]
        }
    },
    "effects": [],
    "flags": {},
    "img": "systems/pf2e/icons/default-icons/feat.svg",
    "name": "Bright Fetchling",
    "type": "feat"
}
