{
    "_id": "tarfuEXmi0E0Enfy",
    "data": {
        "actionCategory": {
            "value": ""
        },
        "actionType": {
            "value": "passive"
        },
        "actions": {
            "value": ""
        },
        "description": {
            "chat": "",
            "unidentified": "",
            "value": "<p>Your ancestors lived in dark spaces underground, granting you dark fur and a vaguely unnatural mien that unnerves sapient creatures and frightens animals. You gain the trained proficiency rank in Intimidation and can use Intimidation to @Compendium[pf2e.actionspf2e.Coerce]{Coerce} animals. When you @Compendium[pf2e.actionspf2e.Demoralize]{Demoralize} an animal, you don't take a penalty for not sharing a language with it. If you would automatically become trained in Intimidation (from your background or class, for example), you become trained in another skill of your choice.</p>\n<p>Animals' attitudes toward you begin one degree worse<br />than normal, usually starting at unfriendly instead of<br />indifferent for domesticated animals, and hostile instead<br />of unfriendly for wild animals.</p>"
        },
        "featType": {
            "value": "heritage"
        },
        "level": {
            "value": 1
        },
        "location": "",
        "prerequisites": {
            "value": []
        },
        "rules": [],
        "schema": {
            "lastMigration": null,
            "version": 0.643
        },
        "source": {
            "value": ""
        },
        "traits": {
            "custom": "",
            "rarity": {
                "value": "common"
            },
            "value": [
                "ratfolk"
            ]
        }
    },
    "effects": [],
    "flags": {},
    "img": "systems/pf2e/icons/features/ancestry/shadow-rat.webp",
    "name": "Shadow Rat",
    "type": "feat"
}
