{
    "_id": "PXtBhRVHM28angjV",
    "data": {
        "actionCategory": {
            "value": ""
        },
        "actionType": {
            "value": "passive"
        },
        "actions": {
            "value": ""
        },
        "description": {
            "chat": "",
            "unidentified": "",
            "value": "<p><strong>[Mentor][Social]</strong></p>\n<p><strong>Prerequisites:</strong> Tier 1 with the Radiant Oath</p>\n<p><strong>Cost</strong>: 2 Fame</p>\n<p><strong>Effect</strong>: While working with less experienced Pathfinder allies, you shield your more fragile wards from the threat of death. For any PCs benefiting from a Level Bump and whose levels are lower than yours, you increase their current and maximum Hit Points by an additional amount equal to 3 times your Radiant Oath reputation tier.</p>\n<p><strong>Normal</strong>: A Level Bump increases a PC's Hit Points by 10% or 10, whichever is higher.</p>\n<p><strong>Special</strong>: A PC can only benefit from two mentor boons.</p>\n<p>@Compendium[pf2e.feat-effects.Effect: Protective Mentor Boon (Liked) (PFS)]{Effect: Protective Mentor Boon (Liked) (PFS)}</p>\n<p>@Compendium[pf2e.feat-effects.Effect: Protective Mentor Boon (Admired) (PFS)]{Effect: Protective Mentor Boon (Admired) (PFS)}</p>\n<p>@Compendium[pf2e.feat-effects.Effect: Protective Mentor Boon (Revered) (PFS)]{Effect: Protective Mentor Boon (Revered) (PFS)}</p>"
        },
        "featType": {
            "value": "pfsboon"
        },
        "level": {
            "value": 0
        },
        "location": "",
        "prerequisites": {
            "value": []
        },
        "rules": [],
        "schema": {
            "lastMigration": null,
            "version": 0.643
        },
        "source": {
            "value": ""
        },
        "traits": {
            "custom": "",
            "rarity": {
                "value": "common"
            },
            "selected": {},
            "value": []
        }
    },
    "effects": [],
    "flags": {},
    "img": "systems/pf2e/icons/default-icons/mystery-man.webp",
    "name": "Mentor, Protective",
    "type": "feat"
}
