{
    "_id": "ugeStF0Rj8phBPWL",
    "data": {
        "description": {
            "value": "<p>Granted when you designate someone as your @Compendium[pf2e.feats-srd.Witch's Charge]{Witch's Charge}.</p>"
        },
        "duration": {
            "expiry": "turn-start",
            "sustained": false,
            "unit": "days",
            "value": 1
        },
        "level": {
            "value": 1
        },
        "rules": [],
        "schema": {
            "lastMigration": null,
            "version": 0.643
        },
        "source": {
            "value": ""
        },
        "start": {
            "initiative": null,
            "value": 0
        },
        "target": null,
        "tokenIcon": {
            "show": true
        },
        "traits": {
            "custom": "",
            "rarity": {
                "value": "common"
            },
            "value": []
        }
    },
    "effects": [],
    "flags": {},
    "img": "systems/pf2e/icons/equipment/other/magic-pots/walking-cauldron.webp",
    "name": "Effect: Witch's Charge",
    "type": "effect"
}
