{
    "_id": "XM1AA8z5cHm8sJXM",
    "data": {
        "description": {
            "value": "<p>Granted by @Compendium[pf2e.feats-srd.Enlightened Presence]{Enlightened Presence}.</p>\n<p>You and allies within 15 feet of you gain a +2 status bonus to Will saving throws against mental effects.</p>"
        },
        "duration": {
            "expiry": "turn-start",
            "sustained": false,
            "unit": "unlimited",
            "value": -1
        },
        "level": {
            "value": 16
        },
        "rules": [
            {
                "key": "PF2E.RuleElement.FlatModifier",
                "predicate": {
                    "all": [
                        "mental"
                    ]
                },
                "selector": "will",
                "type": "status",
                "value": 2
            }
        ],
        "schema": {
            "lastMigration": null,
            "version": 0.643
        },
        "source": {
            "value": ""
        },
        "start": {
            "initiative": null,
            "value": 0
        },
        "target": null,
        "traits": {
            "custom": "",
            "rarity": {
                "value": "common"
            },
            "value": []
        }
    },
    "effects": [],
    "flags": {},
    "img": "systems/pf2e/icons/spells/commune.webp",
    "name": "Feat Effect: Enlightened Presence",
    "type": "effect"
}
