{
    "_id": "LxSev4GNKv26DbZw",
    "data": {
        "description": {
            "value": "<p>Granted by @Compendium[pf2e.feats-srd.Disarming Stance]{Disarming Stance}.</p>\n<p>You gain a +1 circumstance bonus to Athletics checks to Disarm.</p>"
        },
        "duration": {
            "expiry": "turn-start",
            "sustained": false,
            "unit": "unlimited",
            "value": -1
        },
        "level": {
            "value": 6
        },
        "rules": [
            {
                "key": "PF2E.RuleElement.FlatModifier",
                "label": "Disarming Stance (Disarm)",
                "predicate": {
                    "all": [
                        "action:disarm"
                    ]
                },
                "selector": "athletics",
                "type": "circumstance",
                "value": 1
            },
            {
                "key": "PF2E.RuleElement.TokenEffectIcon"
            }
        ],
        "schema": {
            "lastMigration": null,
            "version": 0.643
        },
        "source": {
            "value": ""
        },
        "start": {
            "initiative": null,
            "value": 0
        },
        "target": null,
        "traits": {
            "custom": "",
            "rarity": {
                "value": "common"
            },
            "value": []
        }
    },
    "effects": [],
    "flags": {},
    "img": "systems/pf2e/icons/equipment/weapons/rapier.webp",
    "name": "Stance: Disarming Stance",
    "type": "effect"
}
